<svg width="48" height="48" version="1" xmlns="http://www.w3.org/2000/svg">
 <rect transform="matrix(0,-1,-1,0,0,0)" x="-44" y="-44" width="40" height="40" rx="20" ry="20" fill="#fecd38"/>
 <path d="m10 15v4h4v14h4v-18h-8zm20 0c-4.9706 0-9 4.0294-9 9 0 4.9369 3.9763 8.9401 8.9004 8.9941v0.0059h11.957c0.6349-1.2622 1.1338-2.6004 1.4922-4h-13.349c-2.7614 0-5-2.2386-5-5s2.2386-5 5-5c1.9858 0.0025 3.7819 1.18 4.5762 3h4.1895c-0.933-4.092-4.569-6.996-8.766-7z" fill="#fe3838"/>
</svg>
