<svg width="48" height="48" version="1.1" viewBox="0 0 48 48" xmlns="http://www.w3.org/2000/svg">
 <path d="m21.525 10c-4.5431 0-8.4359 2.8989-10.045 6.9043-4.2987 1.4618-7.4805 5.45-7.4805 10.199 0 5.9416 4.9043 10.896 10.859 10.896h18.281c5.9556 0 10.859-4.9552 10.859-10.896 0-5.9416-4.9043-10.895-10.859-10.895h-0.07617l-0.07813 2e-3c-0.14762 0.0046-0.27344 0.07889-0.41992 0.08984-0.5349-0.31694-1.0484-0.62885-1.6426-0.83789-2.6602-3.1341-5.4821-5.4629-9.3984-5.4629z" fill="#4383c3" stroke-width="10"/>
 <path d="m21.525 15c-3.236 0-5.8594 2.6397-5.8594 5.8959 0.0045 0.14873 0.01516 0.29516 0.03142 0.4392-0.26662-0.0539-0.54537-0.09682-0.83748-0.12687-3.236 0-5.8594 2.6397-5.8594 5.8959s2.6233 5.8959 5.8594 5.8959h18.281c3.237 0 5.86-2.64 5.86-5.896 0-3.2562-2.6233-5.8959-5.8594-5.8959-0.64547 0.01996-1.2471 0.15542-1.7979 0.3828-0.82034-1.0455-2.0911-1.7167-3.5177-1.7167-0.18134 0.01-0.35568 0.01597-0.52368 0.03094-0.46834-2.7844-2.8762-4.905-5.7766-4.905z" fill="#275680"/>
</svg>
