<?xml version="1.0" encoding="UTF-8" standalone="no"?>
<svg
   xmlns:dc="http://purl.org/dc/elements/1.1/"
   xmlns:cc="http://creativecommons.org/ns#"
   xmlns:rdf="http://www.w3.org/1999/02/22-rdf-syntax-ns#"
   xmlns:svg="http://www.w3.org/2000/svg"
   xmlns="http://www.w3.org/2000/svg"
   xmlns:sodipodi="http://sodipodi.sourceforge.net/DTD/sodipodi-0.dtd"
   xmlns:inkscape="http://www.inkscape.org/namespaces/inkscape"
   height="22"
   width="22"
   version="1"
   id="svg16"
   sodipodi:docname="applets-screenshooter.svg"
   inkscape:version="0.92.3 (2405546, 2018-03-11)">
  <metadata
     id="metadata22">
    <rdf:RDF>
      <cc:Work
         rdf:about="">
        <dc:format>image/svg+xml</dc:format>
        <dc:type
           rdf:resource="http://purl.org/dc/dcmitype/StillImage" />
      </cc:Work>
    </rdf:RDF>
  </metadata>
  <defs
     id="defs20" />
  <sodipodi:namedview
     pagecolor="#ffffff"
     bordercolor="#666666"
     borderopacity="1"
     objecttolerance="10"
     gridtolerance="10"
     guidetolerance="10"
     inkscape:pageopacity="0"
     inkscape:pageshadow="2"
     inkscape:window-width="1242"
     inkscape:window-height="773"
     id="namedview18"
     showgrid="false"
     inkscape:zoom="3.7169292"
     inkscape:cx="1.4684345"
     inkscape:cy="-29.894484"
     inkscape:window-x="38"
     inkscape:window-y="27"
     inkscape:window-maximized="1"
     inkscape:current-layer="svg16" />
  <path
     style="fill:#7d649b;enable-background:new"
     d="M 2 3 C 1.446 3 1 3.446 1 4 L 1 4.5 L 1 18 C 1 18.554 1.446 19 2 19 L 20 19 C 20.554 19 21 18.554 21 18 L 21 4.5 L 21 4 C 21 3.446 20.554 3 20 3 L 2 3 z "
     id="rect4" />
  <rect
     id="rect6"
     x="-17.5"
     y="-19.5"
     width="13"
     height="17"
     transform="matrix(0,-1,-1,0,0,0)"
     rx="0"
     style="fill:#3f324e;enable-background:new"
     ry="0" />
  <path
     style="fill:#eef3f6;stroke-width:0.22954063;filter:url(#filter3903)"
     d="M 11.069499,6.4094558 C 9.7631532,6.4261986 8.4919372,6.9876435 7.6111462,7.9987557 l 2.175705,2.4984963 1.5444668,-4.0837613 c -0.0873,-0.00375 -0.17473,-0.00515 -0.261819,-0.00403 z M 11.941932,6.6058206 10.835027,9.712689 15.194505,8.9899946 C 14.548807,7.7673695 13.359116,6.8688283 11.941932,6.6058206 Z M 7.1368222,8.4237645 C 6.3857192,9.5863877 6.1916172,11.05132 6.6692232,12.392755 l 3.28261,-0.607923 z m 8.1939728,1.183569 -3.28261,0.6083725 2.815011,3.360618 c 0.751034,-1.1626 0.945204,-2.627325 0.467599,-3.9689905 z m -3.117628,1.8955035 -1.544468,4.083761 c 1.396709,0.05997 2.780662,-0.506745 3.720173,-1.585265 z M 11.164991,12.2874 6.8055122,13.010543 c 0.645675,1.222556 1.835389,2.120878 3.2525728,2.383725 z"
     id="path829"
     inkscape:connector-curvature="0" />
</svg>
