<svg width="48" height="48" version="1" xmlns="http://www.w3.org/2000/svg">
 <path d="m23.846 4-2e-3 0.00391c-11.007 0.0839-19.844 8.9681-19.844 19.996 0 11.08 8.92 20 20 20 10.68 0 19.351-8.289 19.963-18.811l0.037-0.035v-17.154c0-2.216-1.784-4-4-4h-16.154z" fill="#f0c514"/>
 <circle cx="24" cy="24" r="15" fill="#353535"/>
 <path d="m26.199 17.183c-0.07673 0.88667-0.67958 0.5103-1.3323 0.9941-0.17608-0.02648-0.37691-0.02648-0.6527-0.02648-0.04985-0.59126 0.15133-0.69868 0.25069-0.80608 0.40201-0.32267 0.67958-0.16115 0.67958-0.16115 0.30089-0.05444 0.57633 0.02647 1.0547-4.26e-4zm1.5062-1.4515h-0.87828v-0.24172h-0.47662v0.13391c-0.05162 0.02648-0.10148 0.08094-0.15133 0.10743h-0.04985c-0.83094-0.69868-0.88039 0.72592-1.4337 0.40325-0.04985-0.29582-0.02477-0.56478-0.02477-0.91395 0.955-0.02727 0.60286-0.29581 0.32742-0.64496-0.09935-0.13467-0.15133-0.34954-0.17608-0.48382-0.22594-0.88667-1.1562-1.4242-2.5111-0.85983-0.88039 0.34916-0.65271 1.6126-0.5781 2.4724-0.04985 0.0802-0.15133 0.05373-0.22594 0.05373-0.955 0.05374-1.3818 1.128-1.583 1.9883 0.04985 0.7796-0.04985 1.6394-0.17608 2.3915-0.12623 0.7524-0.37691 1.3437-0.40202 2.0692-0.04985 0.64497 0.17608 1.3974 0.12623 1.9886-0.52825 1.6664-0.90555 2.7679-1.181 4.5417-0.20083 0.40287-0.90337 1.2627-1.181 1.4511-0.0746 0.13391 0.04985 0.43011-0.0746 0.61774-0.22594 0.34915-0.5781 0.53753-0.77894 0.91395 0.04985 0.0802-0.30231 0.16115-0.27544 0.29581 0.02476 0.13391 0.20083 0.48307 0.27544 0.56402 0.02476 0.05374 0.27544-0.08094 0.27544 0 0.10148 0.32192 0.32742 0.9941 0.5781 1.1553 1.1063 0.13391 1.1063 0.13391 1.5579 0 0.25069-0.7796-0.85356-0.4301-0.75421-1.4783 1.5084-0.32192 1.9846-0.77924 2.5875-2.4721 0.27544-1.2362 0.65271-2.4452 1.2305-3.6277 0.09935-0.0802 0.07461-0.29544 0.25068-0.37639 0.67745 1.209 1.91 2.0695 2.5111 3.3326 0.15133 1.6391 0.45364 2.5258 0.9798 2.8216 0.12622 0.05373 0 0.56402 0.10148 0.67145 0 0.16115 0.04985 0.34915-0.02476 0.53753-0.05162 0.13467-0.02475 0.29581-0.02475 0.43011v0.16115c0.02475 0.24285 0.07461 0.24285 0.30054 0.43011 0.65271 0.45658 1.5332 1.1825 2.4114 0.64497 0.40202-0.69944-0.45152-1.5854-1.0543-2.0423-0.20083-0.16115-0.553-0.56402-0.5035-0.83299 0.32742-0.34954 0.553-1.8812 0.42677-3.0637-0.04985-0.2682-0.09935-0.53753-0.20083-0.7524-0.30054-0.61773-0.97798-1.478-1.5558-2.0956 0.07461-0.0802 0.17608-0.18838 0.30054-0.2421 0-0.59088-0.22594-0.77924-0.52612-1.209-0.25281-0.43011-0.82876-1.2627-1.2577-1.5316 0 0 0-0.02727-0.42677-0.02727-0.02476-0.29543 0.05162-0.53753 0.12622-0.85983 0-0.24172 0.17608-0.10706 0.22594-0.64497 0.12623-0.45658 0.07461-0.188 0.17609-0.64459 0.09935-0.21486 0.15133-0.4301 0.15133-0.7796 0.37515 0.13468 1.129 0.10743 1.4564 0l0.07461 0.05374c0.10148 0.02727 0.12623-0.13391 0.20083-0.16077 0.5781-0.32305 0.77894-0.88704 1.2556-0.94079 0 0 0.25281-0.13467 0.6276 0 0.15133 0 0.27756 0.02648 0.27756-0.13467 0.02476-0.24171 0.02476-0.42934 0.15133-0.59125 0.09935 0.64497 0.37515 1.3709 0.87828 2.0695l0.50179-0.37547c-0.47662-0.61773-0.77683-1.3164-0.82876-2.1229 0.02474 0.05373 0.05163 0.10743 0.10148 0.16116 0.17608 0 0.27544-0.40325 0.47663-0.3764 0.02475-0.05373 0.07672-0.29581 0.12623-0.48382h1.8832l0.67778-0.16133v-0.37639l-0.50138-0.05373v-0.43011h-0.12622v-0.48382h-0.30054v0.45696l-0.77894-0.05373v-0.29581h-0.30054v0.26858l-0.80366-0.0802v-0.40324h-0.30231v0.37638l-1.181-0.0802v-0.13353h9.03e-4z" fill="#f0c514" fill-rule="evenodd"/>
</svg>
