<?xml version="1.0" encoding="UTF-8" standalone="no"?>
<svg
   xmlns:dc="http://purl.org/dc/elements/1.1/"
   xmlns:cc="http://creativecommons.org/ns#"
   xmlns:rdf="http://www.w3.org/1999/02/22-rdf-syntax-ns#"
   xmlns:svg="http://www.w3.org/2000/svg"
   xmlns="http://www.w3.org/2000/svg"
   xmlns:sodipodi="http://sodipodi.sourceforge.net/DTD/sodipodi-0.dtd"
   xmlns:inkscape="http://www.inkscape.org/namespaces/inkscape"
   version="1"
   width="48"
   height="48"
   id="svg220"
   sodipodi:docname="deezer.svg"
   inkscape:version="0.92.3 (2405546, 2018-03-11)">
  <metadata
     id="metadata226">
    <rdf:RDF>
      <cc:Work
         rdf:about="">
        <dc:format>image/svg+xml</dc:format>
        <dc:type
           rdf:resource="http://purl.org/dc/dcmitype/StillImage" />
      </cc:Work>
    </rdf:RDF>
  </metadata>
  <defs
     id="defs224" />
  <sodipodi:namedview
     pagecolor="#ffffff"
     bordercolor="#666666"
     borderopacity="1"
     objecttolerance="10"
     gridtolerance="10"
     guidetolerance="10"
     inkscape:pageopacity="0"
     inkscape:pageshadow="2"
     inkscape:window-width="1242"
     inkscape:window-height="773"
     id="namedview222"
     showgrid="false"
     inkscape:zoom="2.7518907"
     inkscape:cx="-69.651616"
     inkscape:cy="38.402508"
     inkscape:window-x="38"
     inkscape:window-y="27"
     inkscape:window-maximized="1"
     inkscape:current-layer="svg220" />
  <g
     id="g646"
     transform="translate(57.917806,20.310501)">
    <rect
       id="rect4-6"
       ry="2.0999999"
       rx="2"
       transform="matrix(0,-1,-1,0,0,0)"
       height="42"
       width="40"
       y="12.917806"
       x="-23.689499"
       style="fill:#333333;fill-opacity:1" />
    <path
       inkscape:connector-curvature="0"
       d="m -52.917806,17.6895 h 6 v 3 h -6 z"
       style="opacity:1;fill:#c23a2c;fill-opacity:1"
       id="path112-2" />
    <path
       inkscape:connector-curvature="0"
       style="opacity:1;fill:#c23a2c;fill-opacity:1"
       d="m -52.917806,12.6895 h 6 v 3 h -6 z"
       id="path114-0" />
    <path
       inkscape:connector-curvature="0"
       style="opacity:1;fill:#c23a2c;fill-opacity:1"
       d="m -52.917806,7.6895 h 6 v 3 h -6 z"
       id="path116-6" />
    <path
       inkscape:connector-curvature="0"
       d="m -52.917806,2.6895 h 6 v 3 h -6 z"
       style="opacity:1;fill:#e84c3d;fill-opacity:1"
       id="path118-1" />
    <path
       inkscape:connector-curvature="0"
       style="opacity:1;fill:#e84c3d;fill-opacity:1"
       d="m -52.917806,-2.3105 h 6 v 3 h -6 z"
       id="path120-5" />
    <path
       inkscape:connector-curvature="0"
       style="opacity:1;fill:#f59d1f;fill-opacity:1"
       d="m -44.917806,17.6895 h 6 v 3 h -6 z"
       id="path122-5" />
    <path
       inkscape:connector-curvature="0"
       d="m -44.917806,12.6895 h 6 v 3 h -6 z"
       style="opacity:1;fill:#f59d1f;fill-opacity:1"
       id="path124-4" />
    <path
       inkscape:connector-curvature="0"
       d="m -44.917806,7.6895 h 6 v 3 h -6 z"
       style="opacity:1;fill:#f59d1f;fill-opacity:1"
       id="path126-7" />
    <path
       inkscape:connector-curvature="0"
       style="opacity:1;fill:#7d649b;fill-opacity:1"
       d="m -36.917806,17.6895 h 6 v 3 h -6 z"
       id="path128-6" />
    <path
       inkscape:connector-curvature="0"
       d="m -36.917806,12.6895 h 6 v 3 h -6 z"
       style="opacity:1;fill:#7d649b;fill-opacity:1"
       id="path130-5" />
    <path
       inkscape:connector-curvature="0"
       d="m -36.917806,7.6895 h 6 v 3 h -6 z"
       style="opacity:1;fill:#7d649b;fill-opacity:1"
       id="path132-6" />
    <path
       inkscape:connector-curvature="0"
       style="opacity:1;fill:#cc66a5;fill-opacity:1"
       d="m -36.917806,2.6895 h 6 v 3 h -6 z"
       id="path134-9" />
    <path
       inkscape:connector-curvature="0"
       d="m -36.917806,-2.3105 h 6 v 3 h -6 z"
       style="opacity:1;fill:#cc66a5;fill-opacity:1"
       id="path136-3" />
    <path
       inkscape:connector-curvature="0"
       style="opacity:1;fill:#cc66a5;fill-opacity:1"
       d="m -36.917806,-7.3105 h 6 v 3 h -6 z"
       id="path138-7" />
    <path
       inkscape:connector-curvature="0"
       d="m -28.917806,17.6895 h 6 v 3 h -6 z"
       style="opacity:1;fill:#26af5f;fill-opacity:1"
       id="path140-4" />
    <path
       inkscape:connector-curvature="0"
       style="opacity:1;fill:#26af5f;fill-opacity:1"
       d="m -28.917806,12.6895 h 6 v 3 h -6 z"
       id="path142-5" />
    <path
       inkscape:connector-curvature="0"
       style="opacity:1;fill:#26af5f;fill-opacity:1"
       d="m -28.917806,7.6895 h 6 v 3 h -6 z"
       id="path144-2" />
    <path
       inkscape:connector-curvature="0"
       d="m -28.917806,2.6895 h 6 v 3 h -6 z"
       style="opacity:1;fill:#6fc387;fill-opacity:1"
       id="path146-5" />
    <path
       inkscape:connector-curvature="0"
       style="opacity:1;fill:#6fc387;fill-opacity:1"
       d="m -28.917806,-2.3105 h 6 v 3 h -6 z"
       id="path148-4" />
    <path
       inkscape:connector-curvature="0"
       style="opacity:1;fill:#4383c3;fill-opacity:1"
       d="m -20.917806,17.6895 h 6 v 3 h -6 z"
       id="path150-7" />
    <path
       inkscape:connector-curvature="0"
       d="m -20.917806,12.6895 h 6 v 3 h -6 z"
       style="opacity:1;fill:#4383c3;fill-opacity:1"
       id="path152-4" />
    <path
       inkscape:connector-curvature="0"
       d="m -20.917806,7.6895 h 6 v 3 h -6 z"
       style="opacity:1;fill:#4383c3;fill-opacity:1"
       id="path154-4" />
    <path
       inkscape:connector-curvature="0"
       style="opacity:1;fill:#67b9ce;fill-opacity:1"
       d="m -20.917806,2.6894989 h 6 v 3 h -6 z"
       id="path156-3" />
    <path
       inkscape:connector-curvature="0"
       d="m -20.917806,-2.3105011 h 6 v 3 h -6 z"
       style="opacity:1;fill:#67b9ce;fill-opacity:1"
       id="path158-0" />
    <path
       inkscape:connector-curvature="0"
       style="opacity:1;fill:#67b9ce;fill-opacity:1"
       d="m -20.917806,-7.3105011 h 6 v 3 h -6 z"
       id="path160-7" />
    <path
       inkscape:connector-curvature="0"
       style="opacity:1;fill:#67b9ce;fill-opacity:1"
       d="m -20.917806,-12.310501 h 6 v 2.9999999 h -6 z"
       id="path162-8" />
  </g>
</svg>
