<?xml version="1.0" encoding="UTF-8" standalone="no"?>
<svg
   xmlns:dc="http://purl.org/dc/elements/1.1/"
   xmlns:cc="http://creativecommons.org/ns#"
   xmlns:rdf="http://www.w3.org/1999/02/22-rdf-syntax-ns#"
   xmlns:svg="http://www.w3.org/2000/svg"
   xmlns="http://www.w3.org/2000/svg"
   xmlns:sodipodi="http://sodipodi.sourceforge.net/DTD/sodipodi-0.dtd"
   xmlns:inkscape="http://www.inkscape.org/namespaces/inkscape"
   height="48"
   width="48"
   version="1"
   id="svg16"
   sodipodi:docname="disk-burner.svg"
   inkscape:version="0.92.3 (2405546, 2018-03-11)">
  <metadata
     id="metadata22">
    <rdf:RDF>
      <cc:Work
         rdf:about="">
        <dc:format>image/svg+xml</dc:format>
        <dc:type
           rdf:resource="http://purl.org/dc/dcmitype/StillImage" />
      </cc:Work>
    </rdf:RDF>
  </metadata>
  <defs
     id="defs20" />
  <sodipodi:namedview
     pagecolor="#ffffff"
     bordercolor="#666666"
     borderopacity="1"
     objecttolerance="10"
     gridtolerance="10"
     guidetolerance="10"
     inkscape:pageopacity="0"
     inkscape:pageshadow="2"
     inkscape:window-width="1242"
     inkscape:window-height="773"
     id="namedview18"
     showgrid="false"
     inkscape:zoom="3.182244"
     inkscape:cx="-37.763822"
     inkscape:cy="37.379786"
     inkscape:window-x="38"
     inkscape:window-y="27"
     inkscape:window-maximized="1"
     inkscape:current-layer="svg16"
     showguides="true"
     inkscape:guide-bbox="true" />
  <g
     id="g829"
     transform="translate(58.386165,6.1642929)">
    <path
       style="fill:#80426b"
       id="path2-3"
       d="m -34.386165,7.8357072 a 10,10 0 0 0 -10,9.9999998 10,10 0 0 0 10,10 10,10 0 0 0 10,-10 10,10 0 0 0 -10,-9.9999998 z m 0,5.9999998 c 2.209,0 4,1.791 4,4 0,2.209 -1.791,4 -4,4 -2.209,0 -4,-1.791 -4,-4 0,-2.2091 1.7909,-4 4,-4 z"
       inkscape:connector-curvature="0" />
    <path
       style="fill:#eef3f6"
       id="path4-6"
       d="m -34.386165,-2.1642928 c -11.08,0 -20,8.92 -20,19.9999998 0,11.08 8.92,20 20,20 11.08,0 20,-8.92 20,-20 0,-11.0799998 -8.92,-19.9999998 -20,-19.9999998 z m 0,12 a 8,8 0 0 1 8,7.9999998 8,8 0 0 1 -8,8 8,8 0 0 1 -8,-8 8,8 0 0 1 8,-7.9999998 z"
       inkscape:connector-curvature="0" />
  </g>
  <g
     id="g833"
     transform="translate(58.414959,6.1724165)">
    <circle
       id="circle12-7"
       r="11"
       cy="29.835707"
       cx="-22.386166"
       style="fill:#e84c3d;enable-background:new" />
    <path
       id="path14-5"
       d="m -20.841165,23.746707 c -4.091,1.636 -6.545,5.47 -6.545,8.181 0,2.6792 2.1474,4.8531 4.8145,4.9039 -1.3328,-0.02618 -2.4064,-1.1105 -2.4064,-2.4495 0,-1.3555 1.2272,-3.2725 3.2725,-4.0906 0,2.8635 2.196,3.2773 1.6362,4.9087 -0.31738,0.92502 -1.0916,1.6271 -2.4336,1.6346 0.0081,4e-5 0.01692,9.36e-4 0.02548,9.36e-4 2.711,0 4.2705,-1.4124 4.9087,-3.2725 1.1195,-3.2628 -3.2725,-4.0906 -3.2725,-9.8174 z"
       style="fill:#ffffff"
       inkscape:connector-curvature="0" />
  </g>
</svg>
