<?xml version="1.0" encoding="UTF-8" standalone="no"?>
<svg
   xmlns:dc="http://purl.org/dc/elements/1.1/"
   xmlns:cc="http://creativecommons.org/ns#"
   xmlns:rdf="http://www.w3.org/1999/02/22-rdf-syntax-ns#"
   xmlns:svg="http://www.w3.org/2000/svg"
   xmlns="http://www.w3.org/2000/svg"
   xmlns:sodipodi="http://sodipodi.sourceforge.net/DTD/sodipodi-0.dtd"
   xmlns:inkscape="http://www.inkscape.org/namespaces/inkscape"
   width="48"
   version="1"
   height="48"
   id="svg12"
   sodipodi:docname="firefox.svg"
   inkscape:version="0.92.3 (2405546, 2018-03-11)">
  <metadata
     id="metadata18">
    <rdf:RDF>
      <cc:Work
         rdf:about="">
        <dc:format>image/svg+xml</dc:format>
        <dc:type
           rdf:resource="http://purl.org/dc/dcmitype/StillImage" />
      </cc:Work>
    </rdf:RDF>
  </metadata>
  <defs
     id="defs16" />
  <sodipodi:namedview
     pagecolor="#ffffff"
     bordercolor="#666666"
     borderopacity="1"
     objecttolerance="10"
     gridtolerance="10"
     guidetolerance="10"
     inkscape:pageopacity="0"
     inkscape:pageshadow="2"
     inkscape:window-width="1242"
     inkscape:window-height="773"
     id="namedview14"
     showgrid="false"
     inkscape:zoom="5.8398171"
     inkscape:cx="32.405282"
     inkscape:cy="27.364049"
     inkscape:window-x="38"
     inkscape:window-y="27"
     inkscape:window-maximized="1"
     inkscape:current-layer="svg12" />
  <path
     inkscape:connector-curvature="0"
     id="path24"
     d="M 33.55495,7.4105395 C 30.719081,5.8724388 27.465172,5 24,5 17.972785,5 12.584728,7.6394817 8.923948,11.830324 8.44581,27.410479 25.98234,44.5414 33.540572,39.051433 37.827746,35.937418 35.016924,17.439351 33.554952,7.410539 Z"
     style="fill:#275680;stroke:none" />
  <path
     inkscape:connector-curvature="0"
     id="path26"
     d="m 31.027344,3 -0.238282,0.296875 c -0.041,0.0509 -0.08115,0.10261 -0.123046,0.15625 -0.9254,1.22746 -1.451447,2.6139856 -2.004446,4.1035156 -0.2108,0.57148 -0.434295,1.4333306 -0.558594,2.1503906 -0.1246,0.7190308 -0.135531,2.3166428 -0.01953,2.9453128 0.3066,1.66536 1.007909,3.23463 2.037109,4.5625 1.193001,1.29899 2.489896,2.73079 2.973196,3.77539 0.6645,1.43723 0.945312,2.716641 0.945312,4.306641 0,0.47927 -0.02736,0.971925 -0.06836,1.265625 C 32.963412,31.27247 29.628286,34.974757 24.94754,35 21.984513,35.011109 18,34 17.462895,30.939376 c 1.427223,0.21735 2.49721,0.139574 3.516614,0.132348 0.942021,-0.0067 1.840847,-0.209011 2.938464,-0.791396 1.6354,-0.87322 2.444972,-1.034272 2.892472,-0.982422 0.6594,0.0764 0.742519,0.07487 0.886719,-0.01563 0.3058,-0.19188 0.393497,-0.26889 0.216797,-0.63392 -0.2231,-0.460851 -1.00581,-1.104418 -1.66211,-1.367188 -0.5497,-0.22011 -0.849112,-0.274991 -1.507812,-0.275391 -0.6708,-3.8e-4 -1.239713,0.03184 -2.449113,0.398438 -1.2073,0.36601 -1.876494,0.420991 -2.621094,0.212891 C 16.577027,26.875906 15.0046,24.12577 16.512,22.116 c 0.9066,-0.0418 2.747995,0.56799 3.322,0.96009 C 20.3832,22.53638 19.191195,21.706014 19,20.947184 19,20 20.929958,19.448618 21.72266,19.091715 c 0.5222,-0.23436 1.03136,-0.474913 1.13086,-0.533203 0.2162,-0.12674 0.633034,-0.531347 0.802734,-0.779297 0.2589,-0.37852 0.428919,-1.079471 0.324219,-1.332031 -0.1314,-0.31741 -1.015297,-0.514948 -3.154297,-0.705078 -0.8073,-0.0718 -1.359556,-0.440877 -1.785156,-1.191407 -0.745605,-1.72401 1.894943,-3.363922 2.839843,-4.232422 -1.5029,-0.8202799 -4.296406,0.618675 -5.191406,1.458985 -0.2867,0.28371 -0.199059,0.279361 -1.068359,0.05078 -0.058,-0.0153 -0.118088,-0.02877 -0.179688,-0.04297 -0.022,-0.005 -0.04441,-0.01083 -0.06641,-0.01563 -0.04,-0.009 -0.08205,-0.01709 -0.123047,-0.02539 -0.029,-0.006 -0.05789,-0.01188 -0.08789,-0.01758 -0.034,-0.006 -0.06736,-0.01343 -0.101562,-0.01953 -0.036,-0.006 -0.07122,-0.01158 -0.107422,-0.01758 -0.026,-0.004 -0.05213,-0.0074 -0.07813,-0.01172 -0.2302,-0.0363 -0.470691,-0.06744 -0.712891,-0.08984 -0.2649,-0.0244 -0.530509,-0.04068 -0.787109,-0.04687 -0.077,-0.002 -0.153716,-0.002 -0.228515,-0.002 -0.081,-1.7e-4 -0.158929,-1.06e-4 -0.236329,0.002 -0.015,3.9e-4 -0.02992,9.53e-4 -0.04492,0.002 -0.065,0.002 -0.129107,0.0048 -0.191407,0.0078 -0.01,4.9e-4 -0.01739,9.53e-4 -0.02539,0.002 -0.069,0.004 -0.134919,0.0094 -0.199219,0.01563 -0.01,5.1e-4 -0.01062,9.53e-4 -0.01563,0.002 -0.066,0.006 -0.1273,0.01504 -0.1875,0.02344 h -0.002 c -0.027,0.004 -0.05603,0.0072 -0.08203,0.01172 -0.2865,-0.001 -0.549237,0.08022 -0.773437,0.183593 C 10.638172,10.518486 10.455741,8.27244 9.8710408,7 c -1.3676,0.71671 -2.3044094,4.239056 -2.5371094,5.439506 -0.089,0.47737 -0.1909063,1.404352 -0.1914063,1.732422 -9.11e-5,0.04722 -0.011878,0.06562 -0.013672,0.09961 C 5.152901,17.37256 4,21.050355 4,25 4,36.045695 12.954305,45 24,45 35.045695,45 44,36.045695 44,25 44,18 40.865276,14.403486 37.761719,9.490234 c 0,-0.003 2.34e-4,-0.00481 -0.0098,-0.00781 -0.457401,-0.6840619 -0.853245,-1.4350158 -1.173829,-2.1796845 -0.05,-0.16416 -0.109359,-0.2988282 -0.130859,-0.2988282 -0.01,0 -0.01925,0.00648 -0.03125,0.017578 C 36.012712,7.5089674 35.81773,9.4073827 35.601529,10 34.040534,7.8378059 32.105328,5.6884706 31.085938,3.2929688 Z"
     style="fill:#e84c3d;fill-opacity:1;stroke:none" />
</svg>
