<svg width="22" height="22" version="1" xmlns="http://www.w3.org/2000/svg">
 <g transform="translate(0 -.30619)">
  <path d="m21 7.1426h-20v12.109c0 0.55399 0.44601 1 1 1h18c0.55399 0 1-0.44601 1-1v-11z" fill="#3597d4"/>
  <path d="m20.268 6.0664h-18.536v1.0762h18.536z" fill="#eef3f6" stroke-width=".9627"/>
  <path d="m3.2783 2.3647c-0.47239-0.052508-0.85797 0.38266-0.85797 0.85797v2.8437h17.159v-1.1278c0-0.85795-0.8144-0.85797-0.8144-0.85797h-9.4812c0-1.0288 0-1.7161-0.85797-1.7159z" fill="#3597d4" stroke-width=".85797"/>
 </g>
 <path d="m9 9.5524v1h-1.5v1h1.5v3h-1.5v1h1.5v1h1v-1h2v1h1v-1h1.5v-1h-1.5v-3h1.5v-1h-1.5v-1h-1v1h-2v-1zm1 2h2v3h-2z" fill="#fff"/>
</svg>
