<svg width="48" height="48" version="1" xmlns="http://www.w3.org/2000/svg">
 <defs>
  <clipPath id="clipPath4186">
   <circle cx="286" cy="26" r="10" fill="url(#linearGradient4190)"/>
  </clipPath>
 </defs>
 <circle transform="matrix(2,0,0,2,-548,-28)" cx="286" cy="26" r="10" clip-path="url(#clipPath4186)" color="#000000" opacity="0" stroke-width=".455"/>
 <circle cx="24" cy="24" r="20" fill="#eef3f6" stroke-linecap="round" stroke-linejoin="round" stroke-width="2.3147"/>
 <circle cx="24" cy="24" r="17" fill="#4383c3" stroke-linecap="round" stroke-linejoin="round" stroke-width="1.9675"/>
 <circle transform="matrix(2,0,0,2,-548,-28)" cx="286" cy="26" r="10" clip-path="url(#clipPath4186)" color="#000000" opacity="0" stroke-width=".909"/>
 <path d="m22.394 7.0913a17 17 0 0 0-6.1523 1.7847c0.08585 0.27208-0.01445 0.57902-0.32725 0.85-0.21165 0.18343-0.38505 0.46912-0.38505 0.63588 0 0.50974 0.4607 1.2924 0.82875 1.4062 0.48875 0.1513 0.3247 0.67286-0.3043 0.96101-0.2907 0.13345-0.64855 0.51765-0.79475 0.8534-0.14705 0.3366-0.36295 0.6681-0.48025 0.73695-0.11645 0.0697-0.2125 0.33235-0.2125 0.5848 0 0.35275 0.1615 0.5236 0.69105 0.73525 0.3791 0.15215 0.833 0.26265 1.009 0.24565 1.0124-0.0952 1.0829 0.4947 0.19805 1.6473-0.47005 0.612-0.69615 0.76585-1.0166 0.6885-0.29835-0.0714-0.46155 0.01275-0.59755 0.30855-0.1428 0.31365-0.3774 0.4199-1.0072 0.46325-0.61965 0.04335-0.89675 0.16915-1.1288 0.5083-0.17 0.24735-0.4148 0.44795-0.54485 0.44795-0.13039 0-0.43656 0.1666-0.68068 0.3689-0.49674 0.41225-0.69071 0.4539-0.86488 0.18445-0.23018-0.357-0.72684-0.1768-1.4659 0.53125-0.65365 0.6256-0.73278 0.79305-0.63418 1.3362 0.17544 0.96645 0.69964 1.8241 1.2982 2.1233 0.52232 0.26095 0.53252 0.289 0.21582 0.6239-0.18216 0.19295-0.4947 0.3995-0.69394 0.45985-0.57545 0.1751-0.25152 0.3944 0.77528 0.5253 1.0509 0.13345 1.3775 0.51425 0.88655 1.0336-0.27378 0.28985-0.2584 0.34425 0.18096 0.61965 0.8585 0.5389 1.5412 0.2091 0.73542-0.3553-0.5179-0.36295-0.15572-0.51085 0.60435-0.24735 0.60605 0.20995 0.7259 0.19805 1.0838-0.11305 0.73525-0.63665 1.5342 0.30515 0.8619 1.0158-0.42755 0.45305-0.29835 0.99875 0.25585 1.0744 0.2448 0.03315 0.7531 0.26095 1.1305 0.5066 0.3774 0.2448 0.7888 0.44625 0.9129 0.44625s0.4743 0.24905 0.7786 0.55335c0.6171 0.61625 0.95965 0.69445 1.1339 0.2601 0.2091-0.5219 0.12495-0.79135-0.4386-1.4059-0.44795-0.4896-1.1764-1.7901-1.1764-2.102 0-0.1921 0.74035-0.0289 1.1552 0.25415 0.25925 0.17765 0.67915 0.4063 0.9333 0.51 0.2703 0.1105 0.5508 0.4539 0.67915 0.8296 0.19975 0.5899 0.2788 0.6409 0.986 0.6409h0.7684l0.11645 1.3812c0.1394 1.6618 0.27285 1.9984 0.8432 2.1352 0.4199 0.10115 0.86785 0.7514 0.86785 1.2597 0 0.13515-0.30175 0.46665-0.67065 0.7361-0.4573 0.33405-0.6545 0.61795-0.6239 0.8959 0.03825 0.34765-0.0408 0.40205-0.53295 0.3655-0.31705-0.0238-0.86785 0.08755-1.2214 0.24735-0.41905 0.1887-0.87295 0.24905-1.2988 0.17255-0.4896-0.08755-0.65535-0.05355-0.65535 0.1377 0 0.1411-0.1717 0.4046-0.3808 0.5865-0.5168 0.44795-0.30345 0.6851 0.49045 0.5423 0.493-0.0884 0.6851-0.0493 0.7701 0.1632 0.18105 0.45135-0.27795 1.0974-0.7038 0.9911-0.2703-0.068-0.3995 0.02465-0.48365 0.3434-0.0289 0.11305-0.08245 0.2091-0.1462 0.2907a17 17 0 0 0 2.6902 0.79475c-0.085-0.16235-0.1819-0.31025-0.27625-0.37655-0.43775-0.3094-0.1445-1.1135 0.45815-1.258 0.61455-0.1479 0.51765-0.54655-0.15045-0.62305-0.58565-0.0663-1.2087-0.6596-1.0132-0.96305 0.13175-0.20315 0.6919-0.1734 1.825 0.0952 0.5117 0.1207 0.86105-0.1224 2.0468-1.4195 0.68595-0.7514 1.2138-1.0642 1.7926-1.0642 0.221 0 1.009-0.20315 1.7518-0.45135 1.4025-0.47005 1.9508-0.45305 1.8989 0.0595-0.1071 1.0659 0.57885 1.0302 1.6966-0.0867 0.4658-0.46495 0.89165-0.80155 0.9469-0.74885 0.21335 0.20485-0.17085 1.2019-0.61965 1.6056-0.56865 0.5117-0.5967 0.8347-0.09605 1.0906 0.2737 0.1411 0.39015 0.42585 0.4335 1.0659l0.0578 0.8738h0.7106c0.24905 0 0.4556 0.034 0.6222 0.09775a17 17 0 0 0 8.2365-14.03c-0.2601-0.5559-0.2414-0.89165 0-1.2699a17 17 0 0 0-0.0765-0.95285c-0.1547-0.0076-0.3128-0.01445-0.4947-0.0068-0.8568 0.0357-1.5904-0.30175-1.5904-0.73185 0-0.09095-0.3043-0.4658-0.67575-0.83215-0.4216-0.4148-0.6375-0.782-0.5746-0.9724 0.0578-0.1734-0.0663-0.45305-0.2856-0.6426-0.21335-0.1853-0.38845-0.4828-0.38845-0.6613 0-0.28475-0.18105-0.32045-1.4909-0.289l-1.4909 0.03655 0.0255 1.4696c0.0442 2.5738 0.42755 3.2419 1.6099 2.811 0.54145-0.19805 1.8717-0.04845 2.25 0.2516 0.13685 0.1088 0.3349 0.5032 0.43945 0.8772 0.1054 0.37315 0.4947 1.02 0.867 1.4356 0.7531 0.8432 0.81175 1.1722 0.37995 2.1616-0.37655 0.8636-0.78285 0.76415-0.7021-0.17255l0.0595-0.697-0.6375 0.119c-0.35275 0.06715-0.79475 0.32725-0.9928 0.5848-0.2822 0.36635-0.41395 0.4199-0.6256 0.25245-0.1479-0.1173-0.26775-0.36465-0.26775-0.54825s-0.1819-0.3876-0.4029-0.45475c-0.22185-0.06715-0.5253-0.4012-0.67405-0.74375-0.23885-0.5474-0.2329-0.71485 0.04505-1.3796 0.28135-0.67405 0.2839-0.7854 0.02465-1.0344-0.238-0.2278-0.36125-0.23545-0.67405-0.0476-0.3145 0.18785-0.46325 0.17425-0.83725-0.0765-0.24905-0.16745-0.6851-0.306-0.9673-0.306-0.57375 0-0.74715-0.2788-0.74715-1.2019 0-0.85255-0.5083-1.162-1.7187-1.0506-0.8398 0.07735-1.0251 0.0221-1.7026-0.4998-0.41905-0.32215-1.0804-1.0974-1.4714-1.7246s-0.81175-1.2826-0.935-1.456c-0.1768-0.25075-0.13345-0.4913 0.2125-1.1738l0.4369-0.8585-0.9231 0.12495c-1.6422 0.22185-1.9746 0.43435-1.2682 0.81345 0.2754 0.14705 0.2873 0.2227 0.0748 0.46835-0.1394 0.1598-0.20485 0.41395-0.1445 0.5644 0.06035 0.1496-0.01615 0.5032-0.16915 0.78455-0.15385 0.2822-0.2822 0.67745-0.2873 0.8806-0.01615 0.63325-1.1008 1.1373-2.3094 1.0702-1.8309-0.10115-1.9796-0.07225-2.6299 0.53125-0.8126 0.7548-0.91715 1.1058-0.5389 1.8062 0.36635 0.68 1.0174 0.95115 2.1446 0.89505 1.0081-0.05015 1.122 0.0391 0.89165 0.7055-0.19635 0.5661-0.85425 0.7837-1.3005 0.4301-0.3434-0.27285-1.5274-0.06205-1.8904 0.33745-0.15215 0.1666-0.37825 0.6052-0.5015 0.9724-0.2125 0.6341-0.27455 0.6732-1.2266 0.765-0.9503 0.09265-1.0421 0.06205-1.7255-0.5678-0.76245-0.7021-0.89165-1.2393-0.52445-2.1641 0.1632-0.4097 0.2839-0.47685 0.7191-0.39695 0.8619 0.15725 1.2019-0.14195 1.2019-1.0625 0-0.44625-0.0867-0.8636-0.19295-0.9265-0.1054-0.0629-0.1921-0.2992-0.1921-0.52615s-0.1088-0.51935-0.24055-0.6477c-0.19295-0.187-0.1649-0.2873 0.1428-0.5049 0.2108-0.14875 0.5576-0.24905 0.7701-0.22355 0.21165 0.0255 0.7973-0.0663 1.3014-0.20315 0.72845-0.19635 0.94265-0.3451 1.0412-0.72845 0.187-0.7276 0.64345-1.3116 1.026-1.3116 0.60435 0 0.6171-1.4212 0.02975-3.4884-0.0867-0.30515-0.32555-0.49895-0.74715-0.6035-0.3417-0.085-0.71315-0.3179-0.82535-0.51833-0.11135-0.20043-0.3162-0.36363-0.45475-0.36363s-0.4097-0.16592-0.60095-0.36856c-0.19295-0.204-0.5916-0.36856-0.89505-0.36856-0.71825 0-0.73015-0.49453-0.01785-0.75531 0.75225-0.27574 1.9236 0.08568 2.2066 0.6806 0.38335 0.80674 0.8092 0.47014 0.94605-0.74868 0.16915-1.5075 0.68935-1.9407 2.329-1.9407h1.179l-0.5168-0.51629c-0.16065-0.16116-0.2941-0.3581-0.38675-0.55122zm6.1115 0.53456c-0.03315 0.02992-0.06545 0.0544-0.09775 0.087975-0.3944 0.40256-0.5797 0.45994-1.1892 0.36694-1.0642-0.16226-0.92735 0.26622 0.25075 0.78362 0.63665 0.27974 1.0464 0.59866 1.1858 0.92132 0.6715 1.5569 1.1339 2.395 1.366 2.48 0.4692 0.17255 0.74885-0.17374 0.8534-1.0589 0.11985-1.0156 0.46325-1.2309 1.0804-0.67566 0.2397 0.21548 0.5746 0.39176 0.74375 0.39176 0.52785 0 0.918 0.2119 0.918 0.4981 0 0.15079 0.1785 0.51416 0.39695 0.80818 0.32215 0.43265 0.5406 0.53635 1.1424 0.53635 0.73865 0 1.1917 0.13855 2.1165 0.6494 0.01445 0.0076 0.0289 0.0102 0.04335 0.01785a17 17 0 0 0-8.8102-5.8069zm-21.502 16.301a17 17 0 0 0-0.00331 0.0731 17 17 0 0 0 0.33201 3.2657c0.61591 0.25075 0.78608 0.1513 0.85-0.4216 0.033065-0.29665 0.18794-0.6324 0.34536-0.74885 0.24318-0.17935 0.19932-0.27115-0.29886-0.61115-0.32249-0.22015-0.6403-0.60435-0.70558-0.8534-0.06324-0.2414-0.2771-0.5049-0.5196-0.7038zm5.3508 5.6194c-0.15895-0.01615-0.35046 0.06885-0.56296 0.27285-0.44956 0.4301-0.38165 1.2946 0.12784 1.6362 0.58386 0.39185 0.80912 0.27795 0.88306-0.44455 0.09095-0.8908-0.09945-1.428-0.44795-1.4646zm2.8849 2.5704c-0.1734 0.0059-0.36465 0.13005-0.5559 0.39185-0.20315 0.2771-0.2584 0.63495-0.18105 1.1781 0.09605 0.6681 0.0544 0.8109-0.29495 0.99025-0.44965 0.2295-0.5457 0.9129-0.17765 1.2648 0.3655 0.3502 0.714 0.2584 0.8398-0.221 0.1785-0.6834 1.179-0.7633 1.8624-0.1496 0.29155 0.2618 0.52955 0.3944 0.52955 0.2941s-0.30345-0.46495-0.67405-0.80835c-0.56695-0.527-0.67235-0.7514-0.67235-1.4297 0-0.9571-0.29325-1.5224-0.67575-1.5104zm-4.7378 2.1947a17 17 0 0 0 0.39346 0.4964c-0.11586-0.17935-0.24812-0.35105-0.39346-0.4964zm5.7289 2.6095c-0.08585 0.02975-0.1224 0.1377-0.1224 0.32725 0 0.1921-0.1224 0.39355-0.272 0.44795-0.1989 0.0731-0.2448 0.30345-0.1683 0.8534 0.01445 0.10285 0.0187 0.1853 0.0238 0.27115a17 17 0 0 0 0.7072 0.36295c-0.0119-0.2941 0.04165-0.64005 0.1955-1.0736 0.26095-0.7361 0.2703-0.92055 0.0578-1.0498-0.1989-0.1207-0.3349-0.16915-0.4216-0.1394z" opacity=".4"/>
 <path d="m4.084 22.314a20 20 0 0 0-0.083984 1.6855 20 20 0 0 0 0.23438 2.9238c3.6415 1.8219 11.301 5.0762 19.766 5.0762 8.4604 0 16.116-3.2498 19.76-5.0723a20 20 0 0 0 0.24023-2.9277 20 20 0 0 0-0.083984-1.6855c-0.15655 0.091849-9.7272 5.6855-19.916 5.6855s-19.759-5.5937-19.916-5.6855z" fill="#eef3f6" stroke-width="4"/>
</svg>
