<svg width="48" height="48" version="1.1" viewBox="0 0 48 48" xmlns="http://www.w3.org/2000/svg">
 <path d="m23.846 4h-2e-3c-11.007 0-19.844 8.9-19.844 20 0 11.08 8.92 20 20 20 10.68 0 19.351-8.289 19.963-18.811l0.037-0.035v-17.154c0-2.216-1.784-4-4-4z" fill="#4b8056"/>
 <circle cx="24" cy="24" r="15" fill="#efefef"/>
 <path d="m18.693 35.9c-0.08735-0.043-0.23176-0.1733-0.32092-0.2905s-0.31944-0.3699-0.51175-0.5616c-0.294-0.293-0.3781-0.3507-0.52844-0.3619-0.10048-0.01-0.25559-0.069-0.35414-0.1401-0.18634-0.1345-0.52051-0.5357-0.52051-0.6249 0-0.071-0.2134-0.1445-0.41967-0.1445-0.36309 0-0.63663-0.1852-0.72004-0.4876-0.02883-0.1045-0.09899-0.313-0.15592-0.4632-0.08728-0.2304-0.13127-0.2845-0.28031-0.3445-0.81681-0.3288-0.83757-0.3431-0.97079-0.6674-0.04751-0.1157-0.12979-0.2697-0.18284-0.3422-0.07776-0.1063-0.09023-0.1763-0.06432-0.3612 0.02537-0.1811 0.0109-0.2686-0.06899-0.4168-0.09188-0.1705-0.09474-0.2021-0.03127-0.3459 0.03841-0.087 0.09448-0.1726 0.1246-0.1902 0.03014-0.018 0.08922-0.095 0.13134-0.1722 0.0761-0.1393 0.07525-0.1413-0.13612-0.3235-0.11699-0.1009-0.30769-0.2415-0.42378-0.3126-0.1702-0.1041-0.22518-0.1737-0.28389-0.3595-0.12801-0.4052-0.10332-0.517 0.17405-0.7879 0.13578-0.1326 0.24686-0.2789 0.24686-0.3251 0-0.046-0.08457-0.1729-0.18794-0.2816-0.10337-0.1086-0.26798-0.3027-0.36581-0.4312-0.2473-0.3249-0.38089-0.4331-0.66065-0.535-0.40908-0.149-0.88011-0.3311-0.958-0.3703-0.04073-0.02-0.13185-0.1369-0.20248-0.2587-0.1997-0.3444-0.29642-0.4137-0.61122-0.4384-0.44571-0.035-0.483-0.1731-0.32447-1.2015 0.06838-0.4436 0.14132-0.6177 0.36871-0.8802 0.28694-0.3312 0.53117-0.4486 0.9978-0.4794 0.36412-0.024 0.41234-0.016 0.75911 0.131 0.20366 0.086 0.40524 0.1771 0.44796 0.2019 0.17532 0.1022 0.90566 1.1149 0.95948 1.3304 0.01604 0.064 0.08943 0.1998 0.16308 0.3012 0.11943 0.1644 0.18631 0.2009 0.61832 0.3375 0.26642 0.084 0.55116 0.2063 0.63276 0.2713 0.18931 0.1507 0.23494 0.1485 0.46266-0.023 0.33134-0.2492 0.48617-0.3159 0.81369-0.3506 0.52205-0.055 0.5431-0.07 0.5431-0.3794 0-0.2004 0.03089-0.3157 0.12551-0.4685 0.17869-0.2886 0.29554-0.2746 0.61999 0.074 0.14168 0.1523 0.35962 0.3287 0.4843 0.3918 0.22362 0.1133 0.22937 0.1137 0.42419 0.033 0.21021-0.087 0.45793-0.3485 0.56296-0.594 0.08772-0.205 0.02684-0.5009-0.14071-0.6841-0.30498-0.3333-0.6938-0.9423-0.6938-1.0867 0-0.2027 0.34171-0.6873 0.58873-0.8349 0.23705-0.1417 0.31223-0.2454 0.42516-0.5864 0.13138-0.3968 0.22805-0.5616 0.40414-0.6887 0.18316-0.1322 0.19422-0.1963 0.08384-0.4854-0.18782-0.492-0.04797-0.7874 0.48305-1.0202 0.36796-0.1614 0.43089-0.2799 0.23686-0.4461-0.15275-0.1308-0.12581-0.3067 0.06961-0.4543 0.2354-0.1778 0.35225-0.5161 0.27367-0.7923-0.03154-0.1109-0.09947-0.2797-0.15095-0.3752-0.1807-0.3353-0.10854-0.5187 0.2616-0.6651 0.19439-0.077 0.38539-0.2735 0.38539-0.3968 0-0.043-0.09902-0.1694-0.22005-0.2818-0.2371-0.2203-0.3124-0.407-0.22585-0.56 0.07883-0.1395 0.27757-0.1222 0.43634 0.038 0.07314 0.074 0.18922 0.1465 0.25795 0.1619 0.18686 0.042 0.59297-0.1558 0.77987-0.3792 0.12176-0.1455 0.20431-0.1966 0.35738-0.221 0.10948-0.017 0.2924-0.1 0.40651-0.1824 0.18825-0.1365 0.20745-0.1695 0.20745-0.3564 0-0.2008 0.0045-0.2066 0.1809-0.2342 0.21718-0.034 0.40632-0.1446 0.51446-0.3008 0.07446-0.1075 0.07292-0.1251-0.024-0.2736-0.05697-0.087-0.10358-0.2031-0.10358-0.2575 0-0.055-0.02558-0.1895-0.05682-0.3001-0.03195-0.1131-0.0416-0.2779-0.02201-0.3767 0.06211-0.3134 0.40396-0.3487 0.67884-0.07 0.16503 0.1672 0.17562 0.2781 0.04564 0.4776-0.08228 0.1262-0.08587 0.1574-0.02691 0.2335 0.06492 0.084 0.07943 0.084 0.31408 0.012 0.34036-0.1054 0.54068-0.096 0.82391 0.041 0.13665 0.066 0.32927 0.117 0.44038 0.1175 0.28385 0 0.4342 0.088 0.47434 0.2739 0.07337 0.3396 0.2777 0.3521 0.4881 0.03 0.13038-0.1997 0.25836-0.236 0.5216-0.1481 0.16933 0.057 0.21901 0.057 0.32093 0 0.17492-0.092 0.31209-0.081 0.66127 0.051 0.18318 0.069 0.34877 0.1047 0.40342 0.086 0.05098-0.017 0.23714-0.1755 0.41371-0.3513 0.2776-0.2766 0.34431-0.3198 0.49372-0.3196 0.21633 2e-4 0.46619 0.1412 0.5624 0.3172 0.04046 0.074 0.14958 0.1895 0.24253 0.2566 0.12304 0.089 0.17725 0.1709 0.19936 0.3018 0.0168 0.099 0.10721 0.2821 0.20114 0.4071 0.13419 0.1787 0.17797 0.2912 0.20447 0.5254 0.03017 0.2651 0.04916 0.3056 0.17344 0.3665 0.21558 0.1055 0.41689 0.085 0.59959-0.062 0.08921-0.072 0.24667-0.1891 0.3499-0.2613 0.11595-0.081 0.23869-0.2324 0.32093-0.3957 0.12226-0.2428 0.14944-0.267 0.3307-0.2951 0.22244-0.034 0.47836 0.054 0.58914 0.2038 0.11064 0.1496 0.0433 0.6219-0.13031 0.9142-0.12301 0.2071-0.14084 0.2767-0.11218 0.4372 0.03514 0.197 0.08047 0.2526 0.3871 0.4753 0.09894 0.072 0.22422 0.2128 0.27842 0.3134 0.13059 0.2423 0.4978 0.455 0.66271 0.3839 0.0878-0.038 0.11931-0.098 0.13943-0.2672 0.0144-0.1201 0.05201-0.2428 0.08379-0.2727 0.07196-0.068 0.69891-0.057 0.83982 0.015 0.07083 0.036 0.101 0.098 0.101 0.2074 0 0.086 0.03641 0.2376 0.08091 0.3371 0.05821 0.1302 0.07848 0.3023 0.07227 0.6132-0.0099 0.4913 0.0051 0.5295 0.36087 0.923 0.37181 0.4113 0.48906 0.5707 0.71561 0.9731 0.27684 0.4917 0.39046 0.7894 0.42992 1.1263 0.02331 0.1976 0.07546 0.3424 0.17197 0.4761 0.33869 0.4692 0.36876 0.7676 0.23049 2.2874-0.05348 0.5879-0.066 0.9532-0.03686 1.0748 0.0288 0.1205 0.01988 0.4149-0.0264 0.8511-0.07399 0.6992-0.14564 0.9439-0.49338 1.6852-0.13851 0.2952-0.18633 0.4645-0.19813 0.7009-0.0794 1.5932-0.43198 2.2979-1.1497 2.2979-0.14848 0-0.29138 0.06-0.63144 0.2641-0.69137 0.4154-0.8101 0.4709-1.2157 0.5685-0.48745 0.1173-0.68297 0.2257-0.79481 0.4407-0.10899 0.2095-0.08311 0.2633 0.23738 0.4943 0.33763 0.2433 0.35474 0.2815 0.25586 0.5713-0.15102 0.4426-0.32995 0.4735-0.79848 0.1379-0.19525-0.1399-0.37716-0.2337-0.4532-0.2337-0.06987 0-0.29642 0.082-0.50346 0.1823-0.64492 0.3122-0.80496 0.3381-1.1632 0.1881-0.25987-0.1088-0.28764-0.1004-0.64341 0.1953-0.1406 0.1168-0.17447 0.1785-0.17447 0.3177 0 0.209-0.07066 0.2849-0.26519 0.2849-0.08067 0-0.18969 0.037-0.24225 0.082-0.05362 0.046-0.17331 0.082-0.2728 0.082-0.16768 0-0.18064 0.011-0.24095 0.2103-0.06908 0.2278-0.25922 0.4206-0.41501 0.4206-0.05369 0-0.20365 0.051-0.33324 0.113-0.50562 0.2425-0.86886 0.2175-1.3702-0.094-0.44449-0.2763-0.50353-0.33-0.63741-0.5797-0.15633-0.2916-0.26408-0.3696-0.61826-0.4478-0.1689-0.037-0.45182-0.1226-0.62872-0.1896-0.28511-0.108-0.36434-0.1184-0.69759-0.092-0.20677 0.016-0.39817 0.029-0.42532 0.028s-0.22349-0.01-0.4363-0.013c-0.34427-0.01-0.39869-0.024-0.49372-0.1281-0.13246-0.1453-0.45162-0.3268-0.57488-0.3268-0.11462 0-0.33997 0.2093-0.46824 0.4348-0.08599 0.1512-0.09019 0.1945-0.03703 0.3826 0.09071 0.321 0.07682 0.3891-0.10052 0.4933-0.13642 0.08-0.21224 0.09-0.50607 0.066-0.30213-0.025-0.37213-0.015-0.55637 0.08-0.11592 0.06-0.34564 0.2345-0.51049 0.3885-0.27809 0.2597-0.29773 0.2917-0.27201 0.4439 0.05992 0.3547-0.09038 0.475-0.35101 0.2809-0.15502-0.1154-0.22871-0.1156-0.49486 0-0.25883 0.1112-0.26638 0.1757-0.02468 0.2109 0.10183 0.015 0.29015 0.06 0.41849 0.1 0.21466 0.067 0.25108 0.067 0.45499-0.01 0.21771-0.079 0.22586-0.078 0.4575 0.031 0.28086 0.1321 0.35047 0.2881 0.26404 0.5919-0.07122 0.2504-0.1689 0.2971-0.71866 0.3442-1.0874 0.093-1.1783 0.094-1.3438 0.013zm12.927-4.3946c0.05712-0.049 0.14924-0.173 0.20474-0.2758 0.10995-0.2037 0.10872-0.178 0.09222-1.9414-0.01029-1.0912 0.01783-1.2242 0.33009-1.57 0.14879-0.1648 0.27894-0.245 0.59798-0.3686 0.70197-0.272 1.0967-0.5386 1.2436-0.84 0.11783-0.2416 0.11646-0.4306-0.0055-0.7588-0.12486-0.3363-0.20001-0.4131-0.33633-0.3441-0.13326 0.067-0.2404 0.024-0.27664-0.1128-0.02605-0.098-0.05729-0.1106-0.27023-0.109-0.20553 0-0.24876 0.018-0.29495 0.1142-0.07121 0.1478-0.19446 0.143-0.25596-0.01-0.04217-0.105-0.07021-0.1185-0.19628-0.095-0.12058 0.023-0.14708 0.012-0.14708-0.058 0-0.047 0.04714-0.1427 0.10474-0.212 0.10416-0.1254 0.10419-0.1262 0.0051-0.1507-0.05475-0.014-0.16594-0.1122-0.24708-0.2191-0.13984-0.1843-0.14821-0.2214-0.16007-0.7085-0.0216-0.8832-0.01097-0.9838 0.11698-1.1297 0.09198-0.1047 0.12239-0.2095 0.14691-0.5059 0.01714-0.2056 0.05444-0.6033 0.08324-0.8838 0.05667-0.552 0.01166-0.9052-0.14972-1.1724-0.10374-0.1719-0.1971-0.8613-0.1793-1.3239 0.01166-0.2984 0-0.3509-0.08626-0.4084-0.08907-0.059-0.11273-0.054-0.22768 0.05-0.15507 0.1406-0.178 0.1431-0.21122 0.023-0.01543-0.056-0.06733-0.094-0.12918-0.094-0.14896 0-0.12798-0.098 0.05057-0.2373 0.12973-0.1009 0.14639-0.1355 0.10265-0.2128-0.10477-0.1853 0.11341-0.2706 0.50867-0.1987 0.06545 0.012 0.0937 0 0.08376-0.048-0.0082-0.036 0.01097-0.1257 0.04303-0.1986 0.07059-0.1614-0.0034-0.2728-0.18044-0.2728-0.1299 0-0.21788-0.1213-0.21788-0.3003 0-0.069-0.04183-0.1442-0.09874-0.1779-0.11914-0.07-0.12476-0.1244-0.02057-0.1965 0.07039-0.049 0.06733-0.072-0.03051-0.2289-0.12568-0.2016-0.32484-0.3145-0.64012-0.363-0.12219-0.019-0.37771-0.058-0.56778-0.087-0.1901-0.029-0.52335-0.086-0.7406-0.1267-0.76508-0.1434-1.2328-0.1685-1.621-0.087-0.79597 0.1671-1.3616 0.4734-1.5395 0.8338-0.13549 0.2745-0.2939 0.5226-0.50151 0.7856-0.11327 0.1435-0.22999 0.3429-0.25938 0.4431-0.05175 0.1765-0.12084 0.2883-0.50715 0.8207-0.10038 0.1384-0.5057 0.5709-0.90072 0.9613-0.57742 0.5706-0.75319 0.7765-0.8966 1.0504-0.09811 0.1874-0.19614 0.4038-0.21783 0.4809-0.0217 0.077-0.085 0.2453-0.14067 0.3738s-0.1522 0.3654-0.21451 0.5264c-0.09937 0.2568-0.17102 0.3435-0.58307 0.7057-0.57166 0.5026-0.79203 0.8563-0.69372 1.1137 0.0538 0.1408 0.04415 0.1797-0.11266 0.4545-0.16646 0.2917-0.16878 0.3028-0.07928 0.3795 0.08973 0.077 0.08902 0.083-0.0264 0.2442-0.08301 0.1156-0.11042 0.2038-0.09137 0.294 0.02095 0.099 0.0031 0.141-0.07678 0.1815-0.0572 0.029-0.10401 0.082-0.10401 0.1173 0 0.035-0.05432 0.1031-0.1207 0.1502-0.11423 0.081-0.11776 0.098-0.06588 0.3071 0.04659 0.1882 0.04272 0.2341-0.02578 0.3057-0.04999 0.052-0.08716 0.1903-0.09783 0.3633-0.01649 0.2673-0.01087 0.2829 0.13415 0.3727 0.08325 0.052 0.17499 0.1626 0.20388 0.2467 0.10136 0.2952 0.26054 0.3899 0.77046 0.4581 0.25339 0.034 0.57464 0.062 0.71389 0.063 0.13925 9e-4 0.3281 0.031 0.41967 0.067s0.42016 0.09 0.73021 0.1189c0.31005 0.029 0.58483 0.066 0.61064 0.081 0.12022 0.07 0.45455 0.1147 0.99804 0.1326 0.74412 0.024 1.2106 0.053 1.545 0.096 0.23351 0.029 0.27465 0.021 0.38662-0.078 0.12284-0.1092 0.12671-0.1096 0.19538-0.021 0.03857 0.05 0.07011 0.1384 0.07011 0.1966 0 0.066 0.06665 0.1558 0.17437 0.2364 0.24033 0.1799 0.36924 0.4022 0.36886 0.636-1.71e-4 0.1075 0.0051 0.3533 0.012 0.546 0.01131 0.3205 0.0216 0.3518 0.12027 0.365 0.13299 0.018 0.19004 0.2176 0.11533 0.4037-0.05801 0.1444 0.0034 0.2594 0.13494 0.2594 0.07525 0 0.07309 0.052-0.01783 0.4323-0.04426 0.1848 0.11893 0.175 0.19336-0.012 0.06936-0.1739 0.23173-0.1938 0.23173-0.028 0 0.2145 0.22398 0.1882 0.31325-0.037 0.04412-0.1112 0.20519 0.1154 0.20519 0.2887 0 0.1467 0.01508 0.1715 0.09874 0.1606 0.25703-0.034 0.94782 0.01 1.0004 0.058 0.01989 0.02 0.25308 0.026 0.51793 0.014 0.38261-0.017 0.50288-0.04 0.58537-0.1103zm-5.4922-6.7958c-0.29449-0.047-0.6341-0.1915-0.75616-0.3215-0.0866-0.092-0.08992-0.1216-0.0338-0.2989 0.03422-0.1081 0.07929-0.2849 0.10016-0.3928 0.02088-0.108 0.09455-0.2772 0.16374-0.3762 0.18538-0.2651 0.38427-0.6508 0.3848-0.7462 0.0014-0.2377 0.40035-0.6908 0.88824-1.0087 0.06788-0.044 0.20522-0.1346 0.30523-0.2009 0.12322-0.082 0.20594-0.1075 0.25679-0.081 0.14293 0.076 0.5038 0.563 0.56853 0.7676 0.06987 0.221 0.13683 0.3978 0.29018 0.7664 0.05345 0.1285 0.11043 0.2872 0.12664 0.3527 0.02948 0.1187 0.33928 0.3249 0.48831 0.3249 0.1009 0 0.23029 0.1471 0.28329 0.322 0.04995 0.1649-0.0034 0.3393-0.18736 0.6208-0.18438 0.281-0.3845 0.32-1.6096 0.3135-0.57224 0-1.1432-0.022-1.269-0.042zm6.0299-6.6064c0-0.036-0.05554-0.099-0.12346-0.1413-0.11609-0.072-0.12342-0.071-0.12342 0.01 0 0.099 0.09072 0.1974 0.1827 0.1974 0.03528 0 0.06418-0.029 0.06418-0.065zm-3.4699 16.643c-0.05869-0.1556 0.221-0.4198 0.35895-0.3391 0.08091 0.047 0.05698 0.2367-0.04049 0.3202-0.10649 0.091-0.28716 0.1019-0.31846 0.019zm2.6552-0.327c-0.08146-0.056-0.16323-0.1226-0.1817-0.1478-0.0492-0.067 0.03223-0.1855 0.17865-0.2597 0.11146-0.056 0.15037-0.055 0.30009 0.013 0.19689 0.089 0.20231 0.1093 0.0888 0.3346-0.09582 0.1902-0.17841 0.203-0.38583 0.06zm-2.0397-0.2138c-0.11615-0.085-0.16079-0.3103-0.08448-0.4272 0.04453-0.068 0.39992-0.03 0.50788 0.055 0.12836 0.1008-0.05242 0.4584-0.23053 0.456-0.04333-6e-4 -0.13011-0.038-0.19288-0.084z" fill="#e84c3d"/>
 <g fill="#fff">
  <path d="m38.558 12.73h3.0713v1.2695h-4.629v-1.2305l0.78125-0.83008q1.3916-1.4795 1.6895-1.8213 0.36621-0.41992 0.52734-0.74219 0.16113-0.32715 0.16113-0.64453 0-0.48828-0.29785-0.75195-0.29297-0.26855-0.83496-0.26855-0.38574 0-0.86914 0.15625-0.47852 0.15137-1.001 0.44434v-1.3428q0.52246-0.19043 1.0205-0.28809 0.50293-0.10254 0.96191-0.10254 1.1572 0 1.8164 0.54199 0.66406 0.53711 0.66406 1.4697 0 0.42969-0.14648 0.80566-0.1416 0.37598-0.49316 0.83496-0.25879 0.33203-1.4209 1.4941-0.62988 0.62988-1.001 1.0059z"/>
 </g>
</svg>
