<svg width="48" height="48" version="1.1" viewBox="0 0 48 48" xmlns="http://www.w3.org/2000/svg">
 <g>
  <path d="m27 11a15 15 0 0 0-15 15 15 15 0 0 0 15 15 15 15 0 0 0 15-15 15 15 0 0 0-15-15z" fill="#e84c3d" stroke-width=".75"/>
  <g stroke-width=".17554">
   <path d="m26.7 16.459c1.8581 0.43965 2.0597 2.8078 3.5543 3.3845 1.9943 0.8101 2.1644-1.7259 1.1347-3.067" fill="#8c6b5f"/>
   <path d="m23.365 4c-10.463-0.0093817-19.084 8.6072-19.359 19.477-0.27974 11.042 8.1583 20.227 18.846 20.516 5.2067 0.14055 9.9851-1.8566 13.551-5.2188 0.38073-0.31766 0.58789-0.51563 0.58789-0.51563s3.8667-4.0583 4.0742-7.4082c-0.98664 1.63-1.8917 3.262-4.3477 4.4707-1.1263 0.52174-2.1587 0.96565-3.1992 1.3164-0.06662 0.01696-0.13351 0.03268-0.20117 0.04883-0.49283 0.11764-1.0093 0.21644-1.5508 0.29102-0.06562 9e-3 -0.13298 0.01699-0.19922 0.02539-0.56154 0.07122-1.1413 0.12307-1.7402 0.14844-0.06164 0.0026-0.12554 0.0018-0.1875 0.0039-0.59083 0.02022-1.1951 0.01847-1.8086-0.0059-0.04003-0.0016-0.07904-1.73e-4 -0.11914-2e-3 -0.62389-0.02767-1.2566-0.08424-1.8906-0.1582-0.09048-0.01056-0.18094-0.01779-0.27148-0.0293-0.61721-0.07843-1.2342-0.18205-1.8477-0.30469-0.09911-0.01981-0.19804-0.03958-0.29688-0.06055-0.60035-0.1274-1.1953-0.27693-1.7793-0.44727-0.18724-0.05462-0.37378-0.11087-0.55859-0.16992-0.13968-0.04463-0.27985-0.08759-0.41797-0.13476-0.19737-0.06741-0.39018-0.14029-0.58398-0.21289-0.15807-0.05921-0.31724-0.11701-0.47266-0.17969-0.1801-0.07264-0.35506-0.15121-0.53125-0.22852-0.14932-0.06551-0.30101-0.1284-0.44727-0.19726-0.31843-0.14994-0.63143-0.30676-0.93359-0.47266-0.24047-0.13302-0.46934-0.2723-0.6875-0.41797-0.50102-0.33454-0.93829-0.70326-1.3301-1.0898-2.0397-2.0815-1.945-4.5289-1.8379-6.1152 0.13494-1.9926 1.8055-6.3643 7.3027-8.6797 3.3965-1.1993 7.3911-2.038 10.73-0.96289 2.512 0.56677 4.3183 1.3909 6.707 2.2344 0 0-0.01933 0.04157 0.64062 0.20508 4.6457 0.73591 4.1242-3.0913 4.1242-3.0913l-0.36414-0.89563c-0.08055-0.47196 0.27296-0.84418 0.27296-0.84418s-0.28635-1.0553-0.23809-1.7528c0.04892-0.69714 0.0094-1.5908-0.14258-2.8652-0.15201-1.2746-0.98855-1.7822-1.2598-1.9803-0.27183-0.19776-1.5384-1.1526-2.752-1.6289-1.2143-0.47628-2.4415-0.82827-3.9531-0.61523-0.16784 0.023733-0.32671 0.049398-0.49219 0.074219-0.0293-0.0093-0.05228-0.019896-0.08398-0.029297-0.57642-0.17119-0.98417-1.104-1.4551-1.0927-0.03604 8.641e-4 -0.07249 0.00395-0.10938 0.00781-0.03631 0.0038-0.07399 0.00866-0.11133 0.015625h-2e-3c-0.03806 0.0071-0.0759 0.01668-0.11523 0.027344-0.04294 0.011654-0.08431 0.026919-0.12305 0.044922-0.27558 0.12811-0.4444 0.61028-0.54879 0.92654-2.4179-1.2221-5.1213-1.9403-7.9883-2.0176-0.16699-0.00452-0.33196-0.0076625-0.49805-0.0078125zm11.367 32.27c-0.35495 0.13228-0.74024 0.24423-1.1367 0.34766 0.39625-0.10337 0.78201-0.21546 1.1367-0.34766z" fill="#805b53"/>
   <path d="m31.804 10.02c-2.0929-0.0025-4.3618 0.60992-6.0189 1.1862-3.1425 1.112-5.2445 1.7268-7.7908 3.5465-0.67518 0.49028-3.3284 2.4384-4.9406 5.155-4.4552 7.8768-1.1604 16.669 4.601 18.569 6.3343 2.3689 13.111 2.6245 20.738-4.1153-0.65643 0.52535 0 0-3.6603 1.9074-4.3141 1.6078-11.935 1.0913-17.052-1.7181-4.1167-2.2772-3.9143-5.6301-3.7798-7.6227 0.13494-1.9926 1.7305-6.3651 7.2278-8.6804 3.3965-1.1993 7.3904-1.7379 10.73-0.66277 2.512 0.56677 4.3176 1.2923 6.7063 2.1358 0 0-0.01967 0.04095 0.64029 0.20447 4.6457 0.73581 4.7959-3.3526 4.7959-3.3526l-0.13246-0.74494-0.40442-1.0107-0.19273-0.43305-0.11625-0.23468s-0.0335-0.29548-0.08046-0.5957c-0.08898 1.1222-0.53584 1.4465-0.53584 1.4465-3.6107-0.68458-4.2561-3.2275-8.0632-4.5342-0.80463-0.31645-1.7193-0.44473-2.6707-0.44586zm6.5882 24.342c0.42056-0.33658 0.62432-0.56656 0.62438-0.56641-0.20885 0.19514-0.41679 0.38295-0.62438 0.56641z" fill="#eef3f6"/>
   <path d="m12.454 20.298-0.02167 0.17844c1.4529-0.07361 3.2336 0.24122 4.5545 1.1677 1.0241 0.69137 1.9466 1.7231 3.2596 1.2564 0.89768-0.31482 0.94756-0.84791 0.60346-1.7245-0.29058-0.71274-0.77091-1.9435-1.3649-2.4154-0.85565-0.67712-3.0677-0.44067-3.1786-1.8567-0.0834-0.66932 0.33819-1.1727 0.71217-1.6606-6.9e-4 0-4.2835 1.0767-4.5646 5.0547z" fill="#8c6b5f"/>
  </g>
 </g>
 <g fill="#3f3f3f">
  <path d="m42.538 15s-0.17282 0.54493-0.9843 0.59275c-0.81116 0.04845-0.67087 1.1765 0.03252 1.8081 0.70371 0.63191 1.254 0.80521 1.7231 0.32029 0.4684-0.48396 1.6188-1.2869-0.7713-2.7211z" stroke-width=".16826"/>
  <path d="m38.683 13.428c-0.51017 0.65097-1.4527 0.76302-2.1056 0.25184-0.65293-0.5138-0.76987-1.4567-0.25933-2.1081 0.50907-0.64984 1.4523-0.76227 2.1049-0.25034 0.6533 0.51305 0.76876 1.4556 0.26006 2.1066z" stroke-width=".19557"/>
  <path d="m43.604 13.535c-0.04203 0.55104-0.3927 0.96467-0.78276 0.92291-0.38974-0.04068-0.67146-0.51963-0.62844-1.0717 0.04236-0.55032 0.39236-0.9636 0.7821-0.92255 0.38974 0.04211 0.67145 0.5207 0.6291 1.0714z" stroke-width=".18005"/>
 </g>
</svg>
