<?xml version="1.0" encoding="UTF-8" standalone="no"?>
<svg
   xmlns:dc="http://purl.org/dc/elements/1.1/"
   xmlns:cc="http://creativecommons.org/ns#"
   xmlns:rdf="http://www.w3.org/1999/02/22-rdf-syntax-ns#"
   xmlns:svg="http://www.w3.org/2000/svg"
   xmlns="http://www.w3.org/2000/svg"
   xmlns:sodipodi="http://sodipodi.sourceforge.net/DTD/sodipodi-0.dtd"
   xmlns:inkscape="http://www.inkscape.org/namespaces/inkscape"
   width="48"
   height="48"
   version="1"
   id="svg24"
   sodipodi:docname="preferences-system-network.svg"
   inkscape:version="0.92.3 (2405546, 2018-03-11)">
  <metadata
     id="metadata30">
    <rdf:RDF>
      <cc:Work
         rdf:about="">
        <dc:format>image/svg+xml</dc:format>
        <dc:type
           rdf:resource="http://purl.org/dc/dcmitype/StillImage" />
      </cc:Work>
    </rdf:RDF>
  </metadata>
  <defs
     id="defs28" />
  <sodipodi:namedview
     pagecolor="#ffffff"
     bordercolor="#666666"
     borderopacity="1"
     objecttolerance="10"
     gridtolerance="10"
     guidetolerance="10"
     inkscape:pageopacity="0"
     inkscape:pageshadow="2"
     inkscape:window-width="1242"
     inkscape:window-height="773"
     id="namedview26"
     showgrid="false"
     inkscape:zoom="7.5779197"
     inkscape:cx="15.547794"
     inkscape:cy="32.006306"
     inkscape:window-x="38"
     inkscape:window-y="27"
     inkscape:window-maximized="1"
     inkscape:current-layer="svg24" />
  <g
     id="g866">
    <path
       inkscape:connector-curvature="0"
       style="fill:#93a5a5"
       d="M 16,41 12,37 H 7 C 5.338,37 4,35.662 4,34 V 10 C 4,8.338 5.338,7 7,7 h 34 c 1.662,0 3,1.338 3,3 v 24 c 0,1.662 -1.338,3 -3,3 h -5 l -4,4 z"
       id="path850" />
    <path
       inkscape:connector-curvature="0"
       style="opacity:1;fill:#2d3e50"
       d="M 20,35 15.5,31 H 10 V 13 h 28 v 18 h -6 l -4,4 z"
       id="path852" />
    <g
       style="fill:#eef3f6"
       transform="scale(1,-1)"
       id="g864">
      <rect
         width="2"
         height="3"
         x="15"
         y="-16"
         id="rect854"
         style="fill:#eef3f6" />
      <rect
         width="2"
         height="3"
         x="19"
         y="-16"
         id="rect856"
         style="fill:#eef3f6" />
      <rect
         width="2"
         height="3"
         x="23"
         y="-16"
         id="rect858"
         style="fill:#eef3f6" />
      <rect
         width="2"
         height="3"
         x="27"
         y="-16"
         id="rect860"
         style="fill:#eef3f6" />
      <rect
         width="2"
         height="3"
         x="31"
         y="-16"
         id="rect862"
         style="fill:#eef3f6" />
    </g>
  </g>
</svg>
