<svg width="48" height="48" version="1.1" viewBox="0 0 48 48" xmlns="http://www.w3.org/2000/svg">
 <g transform="translate(0 -1004.4)">
  <rect x="-633.68" y="913.36" width="0" height="11" fill="#fff"/>
  <rect x="-634" y="912.36" width="0" height="11" fill="#fff"/>
  <rect x="-635.54" y="912.25" width="0" height="11.114" fill="#fbd2bf"/>
  <rect x="-634" y="912.36" width="0" height="11" fill="#fbd2bf"/>
  <rect x="-537.56" y="913.36" width="0" height="11" fill="#fff"/>
  <rect x="-537.88" y="912.36" width="0" height="11" fill="#fff"/>
  <rect x="-539.41" y="912.25" width="0" height="11.114" fill="#fbd2bf"/>
  <rect x="-537.88" y="912.36" width="0" height="11" fill="#fbd2bf"/>
  <rect x="-537.88" y="912.36" width="0" height="11" fill="#fbfbfb"/>
  <rect x="-473.48" y="913.36" width="0" height="11" fill="#fff"/>
  <rect x="-473.8" y="912.36" width="0" height="11" fill="#fff"/>
  <rect x="-475.33" y="912.25" width="0" height="11.114" fill="#fbd2bf"/>
  <rect x="-473.8" y="912.36" width="0" height="11" fill="#fbd2bf"/>
  <rect x="-473.8" y="912.36" width="0" height="11" fill="#fbfbfb"/>
  <rect x="-473.8" y="912.36" width="0" height="11" fill="#fffcf9"/>
  <rect x="-569.6" y="913.36" width="0" height="11" fill="#fff"/>
  <rect x="-569.92" y="912.36" width="0" height="11" fill="#fff"/>
  <rect x="-571.45" y="912.25" width="0" height="11.114" fill="#fbd2bf"/>
  <rect x="-569.92" y="912.36" width="0" height="11" fill="#fbd2bf"/>
  <rect x="-569.92" y="912.36" width="0" height="11" fill="#fbfbfb"/>
  <rect x="-569.92" y="912.36" width="0" height="11" fill="#fffcf9"/>
  <rect x="-569.92" y="912.36" width="0" height="11" fill="#e8d9eb"/>
  <rect x="-569.92" y="912.36" width="0" height="11" fill="#e8d9eb"/>
  <rect x="-505.52" y="913.36" width="0" height="11" fill="#fff"/>
  <rect x="-505.84" y="912.36" width="0" height="11" fill="#fff"/>
  <rect x="-507.37" y="912.25" width="0" height="11.114" fill="#fbd2bf"/>
  <rect x="-505.84" y="912.36" width="0" height="11" fill="#fbd2bf"/>
  <rect x="-505.84" y="912.36" width="0" height="11" fill="#fbfbfb"/>
  <rect x="-505.84" y="912.36" width="0" height="11" fill="#fffcf9"/>
  <rect x="-537.88" y="949.45" width="0" height="11" fill="#036b53"/>
  <rect x="-601.64" y="950.45" width="0" height="11" fill="#fff"/>
  <rect x="-601.96" y="949.45" width="0" height="11" fill="#fff"/>
  <rect x="-603.5" y="949.33" width="0" height="11.114" fill="#fbd2bf"/>
  <rect x="-601.96" y="949.45" width="0" height="11" fill="#fbd2bf"/>
  <rect x="-601.96" y="949.45" width="0" height="11" fill="#fbfbfb"/>
  <rect x="-601.96" y="949.45" width="0" height="11" fill="#fffcf9"/>
  <rect x="-569.6" y="950.45" width="0" height="11" fill="#fff"/>
  <rect x="-569.92" y="949.45" width="0" height="11" fill="#fff"/>
  <rect x="-571.45" y="949.33" width="0" height="11.114" fill="#fbd2bf"/>
  <rect x="-569.92" y="949.45" width="0" height="11" fill="#fbd2bf"/>
  <rect x="-569.92" y="949.45" width="0" height="11" fill="#fbfbfb"/>
  <rect x="-569.92" y="949.45" width="0" height="11" fill="#fffcf9"/>
  <rect x="-569.92" y="949.45" width="0" height="11" fill="#e8d9eb"/>
  <rect x="-569.92" y="949.45" width="0" height="11" fill="#e8d9eb"/>
  <rect x="-473.48" y="950.45" width="0" height="11" fill="#fff"/>
  <rect x="-473.8" y="949.45" width="0" height="11" fill="#fff"/>
  <rect x="-475.33" y="949.33" width="0" height="11.114" fill="#fbd2bf"/>
  <rect x="-473.8" y="949.45" width="0" height="11" fill="#fbd2bf"/>
  <rect x="-473.8" y="949.45" width="0" height="11" fill="#fbfbfb"/>
  <rect x="-473.8" y="949.45" width="0" height="11" fill="#fffcf9"/>
  <rect x="-505.52" y="950.45" width="0" height="11" fill="#fff"/>
  <rect x="-505.84" y="949.45" width="0" height="11" fill="#fff"/>
  <rect x="-507.37" y="949.33" width="0" height="11.114" fill="#fbd2bf"/>
  <rect x="-505.84" y="949.45" width="0" height="11" fill="#fbd2bf"/>
  <rect x="-633.68" y="950.45" width="0" height="11" fill="#fff"/>
  <rect x="-634" y="949.45" width="0" height="11" fill="#fff"/>
  <rect x="-635.54" y="949.33" width="0" height="11.114" fill="#fbd2bf"/>
  <rect x="-634" y="949.45" width="0" height="11" fill="#fbd2bf"/>
 </g>
 <rect transform="matrix(0,-1,-1,0,0,0)" x="-44" y="-44" width="40" height="40" rx="2" ry="2" fill="#e84c3d"/>
 <path d="m8.0176 17.967c-0.1507 0-0.2877 0.061-0.4082 0.181-0.1055 0.106-0.1582 0.235-0.1582 0.385 0 1.01-0.074 3.06-0.2246 5.155-0.1507 2.094-0.2266 3.678-0.2266 4.748 0 0.15 0.0527 0.285 0.1582 0.406 0.1206 0.105 0.2556 0.158 0.4063 0.158 0.1506 0 0.2792-0.053 0.3847-0.158 0.1206-0.121 0.1817-0.256 0.1817-0.406 0-0.995 0.0739-2.547 0.2246-4.657 0.1507-2.109 0.2265-4.191 0.2265-5.246 0-0.15-0.0611-0.279-0.1816-0.385-0.1055-0.12-0.2321-0.181-0.3828-0.181zm27.962 0.027c-0.15-0.015-0.285 0.031-0.406 0.137-0.105 0.09-0.166 0.217-0.181 0.383-0.015 0.181-0.091 1.061-0.227 2.236-0.121 1.025-0.18 1.868-0.18 2.531-0.03 2.245 0.557 3.722 1.762 4.43 0.452 0.241 0.897 0.332 1.334 0.271 0.452-0.075 0.853-0.279 1.199-0.611 0.663-0.678 1.039-1.387 1.129-2.125 0.091-0.768-0.135-1.325-0.678-1.672-0.572-0.361-1.19-0.262-1.853 0.295-0.497 0.422-0.942 1.091-1.334 2.01-0.301-0.603-0.445-1.468-0.43-2.598 0-0.587 0.061-1.395 0.182-2.42 0.135-1.145 0.211-2.046 0.226-2.302 0-0.151-0.052-0.278-0.158-0.383-0.09-0.121-0.219-0.182-0.385-0.182zm-20.507 0.01c-0.435-0.028-0.897 0.105-1.383 0.398-0.302 0.181-0.709 0.489-1.221 0.926-0.105 0.106-0.164 0.243-0.18 0.408-0.015 0.151 0.03 0.286 0.135 0.407 0.106 0.105 0.234 0.166 0.385 0.181 0.166 0.015 0.309-0.031 0.43-0.136 0.437-0.407 0.774-0.679 1.015-0.815 0.362-0.211 0.657-0.278 0.883-0.203 0.211 0.06 0.308 0.303 0.293 0.725-0.015 0.527-0.194 1.234-0.541 2.123-0.241 0.648-0.589 1.432-1.041 2.351-0.527 1.07-0.797 1.612-0.812 1.627l-0.454 1.086c-0.105 0.271-0.181 0.489-0.226 0.654-0.03 0.121-0.051 0.226-0.067 0.317-0.015 0.06-0.023 0.121-0.023 0.181 0.015 0.166 0.076 0.301 0.182 0.407 0.211 0.196 0.548 0.295 1.015 0.295 0.272 0 0.634-0.038 1.086-0.114l0.701-0.113c0.272-0.045 0.483-0.083 0.633-0.113 0.166-0.03 0.293-0.045 0.383-0.045 0.151 0 0.279-0.061 0.385-0.182 0.105-0.12 0.158-0.255 0.158-0.406s-0.059-0.279-0.18-0.385c-0.12-0.105-0.257-0.158-0.408-0.158-0.105 0-0.264 0.023-0.475 0.068-0.195 0.03-0.436 0.068-0.722 0.114-0.286 0.045-0.506 0.083-0.656 0.113-0.347 0.045-0.625 0.075-0.836 0.09 0.03-0.076 0.068-0.181 0.113-0.317 0.105-0.301 0.249-0.647 0.43-1.039l0.791-1.582c0.452-0.919 0.812-1.733 1.084-2.441 0.391-1.025 0.596-1.854 0.611-2.487 0.045-0.994-0.309-1.612-1.063-1.853-0.139-0.045-0.28-0.073-0.425-0.082zm14.478 0c-0.435-0.028-0.895 0.105-1.381 0.398-0.301 0.181-0.708 0.489-1.22 0.926-0.106 0.106-0.167 0.243-0.182 0.408-0.015 0.151 0.031 0.286 0.137 0.407 0.105 0.105 0.234 0.166 0.384 0.181 0.166 0.015 0.308-0.031 0.428-0.136 0.437-0.407 0.777-0.679 1.018-0.815 0.361-0.211 0.655-0.278 0.881-0.203 0.211 0.06 0.31 0.303 0.295 0.725-0.016 0.527-0.197 1.234-0.543 2.123-0.242 0.648-0.587 1.432-1.039 2.351-0.528 1.07-0.8 1.612-0.815 1.627l-0.451 1.086c-0.106 0.271-0.181 0.489-0.227 0.654-0.03 0.121-0.053 0.226-0.068 0.317-0.015 0.06-0.022 0.121-0.022 0.181 0.016 0.166 0.075 0.301 0.18 0.407 0.211 0.196 0.551 0.295 1.018 0.295 0.271 0 0.634-0.038 1.086-0.114l0.699-0.113c0.271-0.045 0.482-0.083 0.633-0.113 0.165-0.03 0.294-0.045 0.384-0.045 0.151 0 0.28-0.061 0.385-0.182 0.106-0.12 0.158-0.255 0.158-0.406s-0.061-0.279-0.181-0.385c-0.121-0.105-0.256-0.158-0.406-0.158-0.106 0-0.264 0.023-0.475 0.068-0.196 0.03-0.436 0.068-0.723 0.114-0.286 0.045-0.505 0.083-0.656 0.113-0.347 0.045-0.625 0.075-0.836 0.09 0.03-0.076 0.068-0.181 0.113-0.317 0.106-0.301 0.249-0.647 0.43-1.039l0.791-1.582c0.452-0.919 0.813-1.733 1.084-2.441 0.392-1.025 0.596-1.854 0.611-2.487 0.046-0.994-0.309-1.612-1.062-1.853-0.139-0.045-0.283-0.073-0.428-0.082zm-8.174 2.437c-0.071 0.012-0.141 0.041-0.209 0.086-0.135 0.076-0.218 0.188-0.248 0.338-0.015 0.045-0.023 0.092-0.023 0.137-0.03 0.045-0.06 0.098-0.09 0.158-0.09 0.286-0.151 0.519-0.182 0.699-0.045 0.257-0.03 0.469 0.045 0.635 0.091 0.181 0.234 0.301 0.43 0.361 0.136 0.031 0.273 0.016 0.408-0.044 0.136-0.046 0.262-0.136 0.383-0.272 0.196-0.181 0.371-0.4 0.521-0.656 0.091-0.136 0.15-0.256 0.18-0.362 0.03-0.075 0.053-0.151 0.069-0.226 0.03-0.166 0-0.316-0.09-0.451-0.151-0.226-0.385-0.355-0.701-0.385h-0.272c-0.075-0.023-0.149-0.029-0.221-0.018zm17.268 4.075c0.037 2e-3 0.069 0.012 0.1 0.031 0.135 0.075 0.181 0.271 0.136 0.588-0.06 0.467-0.332 0.941-0.814 1.424-0.317 0.331-0.663 0.405-1.039 0.224 0.346-0.994 0.745-1.68 1.197-2.056 0.17-0.147 0.31-0.217 0.42-0.211zm-16.889 2.408c-0.12-0.015-0.234 0-0.34 0.045-0.045 0-0.098 6e-3 -0.158 0.021-0.15 0.03-0.271 0.115-0.361 0.25-0.075 0.136-0.09 0.279-0.045 0.43 0.015 0.075 0.045 0.21 0.09 0.406 0.015 0.076 0.023 0.128 0.023 0.158 0.015 0.046 0.038 0.09 0.069 0.135 0.03 0.06 0.074 0.113 0.134 0.158 0.166 0.136 0.347 0.174 0.543 0.114 0.121-0.046 0.218-0.128 0.293-0.248 0.03-0.031 0.054-0.069 0.069-0.114 0.015-0.03 0.023-0.068 0.023-0.113 0.015-0.03 0.022-0.074 0.022-0.135 0.03-0.181 0.059-0.324 0.089-0.429 0.015-0.166-0.02-0.31-0.111-0.43-0.075-0.136-0.189-0.218-0.34-0.248z" fill="#eef3f6"/>
</svg>
