<svg width="48" height="48" version="1" xmlns="http://www.w3.org/2000/svg">
 <rect transform="matrix(0,-1,-1,0,0,0)" x="-44" y="-40" width="40" height="32" rx="2" ry="2" fill="#e84c3d"/>
 <path d="m14.85 4c0.216 0.9076 0.408 1.5215 0.408 1.5215l0.246 0.7383-0.01 0.0019 0.018 0.0508c0.062 0.1954 0.112 0.3944 0.152 0.5957 0.041 0.2013 0.071 0.4072 0.09 0.6113 0.018 0.2042 0.027 0.4094 0.023 0.6133-3e-3 0.204-0.018 0.4048-0.043 0.6055-0.024 0.2006-0.058 0.3975-0.103 0.5918s-0.1 0.3873-0.166 0.5722c-0.066 0.1847-0.14 0.3647-0.227 0.5367-0.086 0.173-0.186 0.336-0.293 0.493l0.02-6e-3c-0.114 0.159-0.218 0.327-0.313 0.498s-0.178 0.346-0.254 0.527c-0.075 0.181-0.142 0.364-0.197 0.553-0.054 0.189-0.096 0.383-0.129 0.578s-0.056 0.396-0.066 0.596c-0.01 0.199-8e-3 0.399 6e-3 0.601 0.013 0.202 0.041 0.407 0.08 0.61 0.038 0.202 0.086 0.402 0.15 0.603 0.054 0.167 0.117 0.331 0.186 0.488 0.068 0.157 0.142 0.309 0.224 0.456 0.164 0.293 0.354 0.565 0.567 0.814s0.451 0.475 0.705 0.676c0.253 0.2 0.523 0.374 0.808 0.521 0.286 0.148 0.588 0.266 0.897 0.356s0.626 0.149 0.949 0.177c0.324 0.028 0.649 0.027 0.979-0.011 0.165-0.019 0.331-0.048 0.496-0.084 0.165-0.037 0.332-0.085 0.496-0.139s0.326-0.11 0.48-0.18c0.155-0.069 0.301-0.151 0.446-0.234 0.288-0.167 0.557-0.362 0.802-0.578 0.245-0.217 0.467-0.454 0.664-0.711 0.198-0.257 0.367-0.532 0.512-0.822s0.261-0.593 0.35-0.907c0.088-0.313 0.152-0.641 0.179-0.97 0.028-0.329 0.024-0.659-0.013-0.994-0.019-0.168-0.045-0.338-0.08-0.506-0.036-0.168-0.084-0.337-0.137-0.504-0.065-0.202-0.142-0.393-0.229-0.58-0.086-0.187-0.181-0.366-0.287-0.537-0.106-0.172-0.219-0.337-0.343-0.493-0.124-0.155-0.257-0.301-0.397-0.439s-0.287-0.269-0.441-0.3887c-0.154-0.1199-0.317-0.2291-0.483-0.33-0.166-0.101-0.335-0.1923-0.511-0.2735-0.177-0.0812-0.361-0.1524-0.545-0.2129l0.029-0.0117c-0.178-0.0625-0.351-0.1335-0.522-0.2207-0.17-0.0871-0.338-0.1875-0.5-0.2969-0.161-0.1094-0.318-0.2299-0.468-0.3593-0.151-0.1295-0.295-0.2708-0.432-0.418s-0.267-0.2983-0.389-0.4609c-0.121-0.1627-0.233-0.3359-0.338-0.5118-0.104-0.1758-0.2-0.3581-0.285-0.5449-0.064-0.1423-0.12-0.2878-0.172-0.4355l0.01-2e-3 -0.316-0.9492s-0.128-0.4525-0.242-0.875h-2.041zm14.42 10.004c-0.2-8e-3 -0.4-2e-3 -0.602 0.014-0.202 0.015-0.405 0.043-0.607 0.084-0.203 0.04-0.401 0.089-0.602 0.156-0.166 0.055-0.328 0.118-0.484 0.187-0.157 0.07-0.31 0.147-0.455 0.231-0.292 0.167-0.56 0.359-0.807 0.574s-0.47 0.452-0.668 0.707-0.373 0.528-0.518 0.814c-0.144 0.287-0.258 0.59-0.345 0.899s-0.143 0.629-0.168 0.953-0.018 0.649 0.023 0.979c0.021 0.164 0.046 0.331 0.084 0.496 0.038 0.164 0.087 0.328 0.143 0.492 0.055 0.163 0.116 0.323 0.187 0.476 0.071 0.154 0.154 0.304 0.238 0.448 0.17 0.287 0.364 0.551 0.582 0.795 0.219 0.243 0.46 0.463 0.719 0.658s0.536 0.367 0.826 0.51c0.291 0.142 0.595 0.254 0.909 0.339 0.314 0.086 0.64 0.144 0.968 0.168 0.329 0.025 0.664 0.021 0.998-0.019 0.168-0.02 0.333-0.051 0.5-0.088 0.168-0.037 0.336-0.086 0.502-0.141 0.201-0.066 0.394-0.144 0.58-0.232s0.363-0.184 0.534-0.291c0.17-0.108 0.332-0.224 0.486-0.35 0.154-0.125 0.299-0.257 0.436-0.398 0.136-0.141 0.266-0.292 0.384-0.447 0.119-0.155 0.223-0.318 0.323-0.485 0.099-0.167 0.192-0.338 0.271-0.515 0.08-0.177 0.148-0.36 0.207-0.545l0.01 0.027c0.061-0.178 0.131-0.35 0.217-0.521 0.085-0.172 0.185-0.342 0.293-0.504 0.107-0.163 0.229-0.322 0.357-0.473 0.128-0.152 0.264-0.297 0.41-0.436 0.146-0.138 0.298-0.271 0.459-0.394s0.331-0.234 0.506-0.34 0.355-0.203 0.541-0.289c0.14-0.065 0.286-0.121 0.432-0.174l4e-3 6e-3c0.922-0.186 1.762-0.18 2.777-0.18l4e-3 -1.99c-0.992 0-2.014 0-3.233 0.231l-3e-3 -0.01-0.049 0.017c-0.195 0.065-0.397 0.118-0.598 0.161-0.201 0.042-0.402 0.073-0.605 0.093-0.204 0.021-0.408 0.031-0.612 0.03-0.204-2e-3 -0.407-0.015-0.607-0.038-0.201-0.022-0.398-0.052-0.592-0.095-0.194-0.044-0.389-0.104-0.574-0.168-0.186-0.065-0.364-0.134-0.537-0.219s-0.337-0.184-0.494-0.289l7e-3 0.023c-0.16-0.112-0.33-0.219-0.502-0.312-0.171-0.094-0.347-0.174-0.529-0.248-0.181-0.074-0.367-0.141-0.557-0.193-0.189-0.053-0.38-0.092-0.576-0.124-0.195-0.031-0.394-0.052-0.593-0.06zm-15.463 4.998c-0.166 4e-3 -0.333 0.015-0.5 0.035-0.168 0.02-0.337 0.051-0.504 0.088-0.168 0.037-0.334 0.084-0.5 0.139-0.201 0.066-0.39 0.142-0.576 0.23s-0.367 0.189-0.538 0.297c-0.17 0.108-0.33 0.22-0.484 0.346-0.154 0.125-0.301 0.261-0.437 0.402-0.137 0.141-0.265 0.288-0.3832 0.443-0.1184 0.155-0.2269 0.316-0.3262 0.483s-0.1862 0.338-0.2656 0.515c-0.0795 0.177-0.1523 0.36-0.211 0.545l-0.0097-0.025c-0.0609 0.178-0.1334 0.35-0.2188 0.521-0.0854 0.172-0.1813 0.342-0.289 0.504-0.1078 0.163-0.2276 0.323-0.3555 0.475-0.065 0.077-0.139 0.146-0.209 0.219v3.066c0.058-1e-3 0.1161-8e-3 0.1738-8e-3 0.2038 1e-3 0.4048 0.013 0.6055 0.035 0.2006 0.023 0.3973 0.055 0.5918 0.098 0.1945 0.044 0.3889 0.098 0.5742 0.162 0.1857 0.065 0.3637 0.14 0.5367 0.225s0.339 0.178 0.497 0.283l-0.01-0.019c0.16 0.112 0.332 0.215 0.504 0.308 0.171 0.094 0.346 0.176 0.527 0.25s0.367 0.139 0.557 0.192c0.189 0.052 0.381 0.09 0.576 0.121s0.396 0.056 0.596 0.064c0.199 8e-3 0.397 4e-3 0.599-0.012 0.202-0.015 0.403-0.041 0.606-0.082 0.202-0.04 0.402-0.093 0.603-0.16 0.166-0.055 0.332-0.118 0.488-0.187 0.157-0.07 0.306-0.147 0.452-0.231 0.291-0.167 0.563-0.359 0.81-0.574s0.47-0.456 0.668-0.711 0.369-0.526 0.514-0.812c0.144-0.287 0.259-0.589 0.345-0.899 0.087-0.309 0.144-0.625 0.168-0.949 0.025-0.324 0.022-0.651-0.019-0.981-0.021-0.164-0.048-0.333-0.086-0.498-0.038-0.164-0.089-0.328-0.145-0.492-0.055-0.163-0.116-0.321-0.187-0.474-0.071-0.154-0.154-0.302-0.238-0.446-0.17-0.287-0.364-0.553-0.582-0.797-0.219-0.243-0.46-0.465-0.719-0.66s-0.535-0.361-0.826-0.504c-0.291-0.142-0.596-0.258-0.91-0.343-0.315-0.086-0.639-0.144-0.967-0.168-0.165-0.013-0.331-0.018-0.496-0.014zm10.131 5.039c-0.164 2e-3 -0.33 0.012-0.495 0.031s-0.331 0.046-0.496 0.082c-0.165 0.037-0.328 0.085-0.492 0.139s-0.326 0.116-0.48 0.186c-0.155 0.069-0.301 0.147-0.446 0.23-0.288 0.167-0.557 0.362-0.802 0.578-0.246 0.217-0.467 0.454-0.665 0.711-0.197 0.258-0.37 0.534-0.515 0.824s-0.261 0.595-0.35 0.908c-0.088 0.314-0.152 0.636-0.179 0.965-0.028 0.329-0.024 0.665 0.013 1 0.019 0.168 0.049 0.334 0.084 0.502 0.036 0.168 0.08 0.337 0.133 0.504 0.065 0.202 0.142 0.393 0.229 0.58 0.086 0.187 0.181 0.37 0.287 0.541 0.106 0.172 0.22 0.333 0.343 0.489 0.124 0.155 0.257 0.303 0.397 0.441s0.289 0.267 0.443 0.387 0.313 0.227 0.479 0.328 0.337 0.194 0.513 0.275c0.177 0.081 0.361 0.156 0.545 0.217l-0.029 6e-3c0.178 0.062 0.351 0.137 0.522 0.224 0.17 0.088 0.336 0.184 0.498 0.293 0.161 0.11 0.322 0.234 0.472 0.364 0.151 0.129 0.293 0.269 0.43 0.416s0.271 0.302 0.393 0.465c0.121 0.162 0.229 0.332 0.334 0.507 0.104 0.176 0.2 0.357 0.285 0.543 0.064 0.142 0.118 0.288 0.17 0.436l-0.01 4e-3 0.322 0.953s0.874 2.641 0.967 5.83h1.978c-0.093-3.563-1.076-6.48-1.076-6.48l-0.246-0.735 0.01-4e-3 -0.016-0.052c-0.062-0.196-0.11-0.395-0.15-0.596-0.041-0.201-0.075-0.403-0.094-0.608-0.018-0.204-0.022-0.409-0.019-0.613s0.016-0.407 0.041-0.607c0.024-0.201 0.058-0.4 0.103-0.594s0.102-0.387 0.168-0.572 0.14-0.363 0.227-0.535c0.086-0.173 0.186-0.338 0.293-0.495l-0.024 0.01c0.114-0.159 0.22-0.331 0.315-0.502s0.176-0.346 0.252-0.527c0.075-0.181 0.144-0.366 0.199-0.555 0.054-0.189 0.096-0.381 0.129-0.576s0.054-0.394 0.064-0.594c0.01-0.199 0.012-0.401-2e-3 -0.603s-0.043-0.405-0.082-0.608c-0.038-0.202-0.088-0.404-0.152-0.605-0.054-0.167-0.113-0.327-0.182-0.485-0.068-0.157-0.144-0.312-0.226-0.459-0.164-0.293-0.354-0.565-0.567-0.814s-0.45-0.473-0.703-0.674c-0.253-0.2-0.523-0.376-0.808-0.523-0.286-0.147-0.586-0.266-0.895-0.356-0.309-0.089-0.626-0.151-0.949-0.179-0.162-0.014-0.325-0.02-0.488-0.018z" fill="#fff"/>
 <path d="m39.982 5.8223 0.018 9.5567v-9.379c0-0.060871-0.01231-0.11828-0.01758-0.17773z" fill="#fff"/>
</svg>
