<?xml version="1.0" encoding="UTF-8" standalone="no"?>
<svg
   xmlns:dc="http://purl.org/dc/elements/1.1/"
   xmlns:cc="http://creativecommons.org/ns#"
   xmlns:rdf="http://www.w3.org/1999/02/22-rdf-syntax-ns#"
   xmlns:svg="http://www.w3.org/2000/svg"
   xmlns="http://www.w3.org/2000/svg"
   xmlns:sodipodi="http://sodipodi.sourceforge.net/DTD/sodipodi-0.dtd"
   xmlns:inkscape="http://www.inkscape.org/namespaces/inkscape"
   height="48"
   width="48"
   version="1"
   id="svg20"
   sodipodi:docname="system-switch-user.svg"
   inkscape:version="0.92.3 (2405546, 2018-03-11)">
  <metadata
     id="metadata26">
    <rdf:RDF>
      <cc:Work
         rdf:about="">
        <dc:format>image/svg+xml</dc:format>
        <dc:type
           rdf:resource="http://purl.org/dc/dcmitype/StillImage" />
      </cc:Work>
    </rdf:RDF>
  </metadata>
  <defs
     id="defs24" />
  <sodipodi:namedview
     pagecolor="#ffffff"
     bordercolor="#666666"
     borderopacity="1"
     objecttolerance="10"
     gridtolerance="10"
     guidetolerance="10"
     inkscape:pageopacity="0"
     inkscape:pageshadow="2"
     inkscape:window-width="1242"
     inkscape:window-height="773"
     id="namedview22"
     showgrid="false"
     inkscape:zoom="2.6791992"
     inkscape:cx="2.9676763"
     inkscape:cy="65.793059"
     inkscape:window-x="38"
     inkscape:window-y="27"
     inkscape:window-maximized="1"
     inkscape:current-layer="svg20" />
  <g
     id="g845">
    <circle
       cy="24"
       cx="24"
       r="20"
       id="circle833"
       style="fill:#1ab99b" />
    <g
       transform="translate(-5)"
       id="g839"
       style="fill:#ffffff;fill-rule:evenodd">
      <path
         d="M 24.5,12 C 23.669,12 23,12.573 23,13.285 V 29 h -3.5 l 5,6 5,-6 H 26 V 13.285 C 26,12.573 25.331,12 24.5,12 Z"
         id="path835"
         inkscape:connector-curvature="0" />
      <path
         d="M 34.5,35 C 33.669,35 33,34.427 33,33.715 V 18 h -3.5 l 5,-6 5,6 H 36 V 33.715 C 36,34.427 35.331,35 34.5,35 Z"
         id="path837"
         inkscape:connector-curvature="0" />
    </g>
  </g>
</svg>
