<?xml version="1.0" encoding="UTF-8" standalone="no"?>
<svg
   xmlns:dc="http://purl.org/dc/elements/1.1/"
   xmlns:cc="http://creativecommons.org/ns#"
   xmlns:rdf="http://www.w3.org/1999/02/22-rdf-syntax-ns#"
   xmlns:svg="http://www.w3.org/2000/svg"
   xmlns="http://www.w3.org/2000/svg"
   xmlns:sodipodi="http://sodipodi.sourceforge.net/DTD/sodipodi-0.dtd"
   xmlns:inkscape="http://www.inkscape.org/namespaces/inkscape"
   height="48"
   width="48"
   version="1"
   id="svg12"
   sodipodi:docname="system-shutdown.svg"
   inkscape:version="0.92.3 (2405546, 2018-03-11)">
  <metadata
     id="metadata18">
    <rdf:RDF>
      <cc:Work
         rdf:about="">
        <dc:format>image/svg+xml</dc:format>
        <dc:type
           rdf:resource="http://purl.org/dc/dcmitype/StillImage" />
      </cc:Work>
    </rdf:RDF>
  </metadata>
  <defs
     id="defs16" />
  <sodipodi:namedview
     pagecolor="#ffffff"
     bordercolor="#666666"
     borderopacity="1"
     objecttolerance="10"
     gridtolerance="10"
     guidetolerance="10"
     inkscape:pageopacity="0"
     inkscape:pageshadow="2"
     inkscape:window-width="1242"
     inkscape:window-height="773"
     id="namedview14"
     showgrid="false"
     inkscape:zoom="5.3583984"
     inkscape:cx="1.4291775"
     inkscape:cy="41.76521"
     inkscape:window-x="38"
     inkscape:window-y="27"
     inkscape:window-maximized="1"
     inkscape:current-layer="svg12" />
  <g
     id="g848"
     transform="translate(28.105704,17.990159)">
    <circle
       style="fill:#e84c3d"
       id="circle2-3"
       r="20"
       cx="-4.1057043"
       cy="6.0098414" />
    <path
       id="path6-6"
       d="m -4.1057044,-6.9901585 c -7.1799996,0 -12.9999996,5.82 -12.9999996,13 0,7.1799995 5.82,12.9999995 12.9999996,12.9999995 7.18,0 13,-5.82 13,-12.9999995 0,-7.18 -5.82,-13 -13,-13 z m 0,3 c 5.523,0 10,4.47699997 10,10 0,5.5229995 -4.477,9.9999995 -10,9.9999995 -5.523,0 -9.9999996,-4.477 -9.9999996,-9.9999995 0,-5.52300003 4.4769996,-10 9.9999996,-10 z m 0,3.99999997 c -1.108,0 -2,0.936 -2,2.09400003 v 7.812 c 0,1.1579995 0.892,2.0939995 2,2.0939995 1.108,0 2,-0.936 2,-2.0939995 v -7.812 c 0,-1.15800003 -0.892,-2.09400003 -2,-2.09400003 z"
       style="fill:#ffffff;fill-rule:evenodd"
       inkscape:connector-curvature="0" />
  </g>
</svg>
