<?xml version="1.0" encoding="UTF-8" standalone="no"?>
<svg
   xmlns:dc="http://purl.org/dc/elements/1.1/"
   xmlns:cc="http://creativecommons.org/ns#"
   xmlns:rdf="http://www.w3.org/1999/02/22-rdf-syntax-ns#"
   xmlns:svg="http://www.w3.org/2000/svg"
   xmlns="http://www.w3.org/2000/svg"
   xmlns:sodipodi="http://sodipodi.sourceforge.net/DTD/sodipodi-0.dtd"
   xmlns:inkscape="http://www.inkscape.org/namespaces/inkscape"
   height="48"
   width="48"
   version="1"
   id="svg12"
   sodipodi:docname="system-reboot.svg"
   inkscape:version="0.92.3 (2405546, 2018-03-11)">
  <metadata
     id="metadata18">
    <rdf:RDF>
      <cc:Work
         rdf:about="">
        <dc:format>image/svg+xml</dc:format>
        <dc:type
           rdf:resource="http://purl.org/dc/dcmitype/StillImage" />
      </cc:Work>
    </rdf:RDF>
  </metadata>
  <defs
     id="defs16" />
  <sodipodi:namedview
     pagecolor="#ffffff"
     bordercolor="#666666"
     borderopacity="1"
     objecttolerance="10"
     gridtolerance="10"
     guidetolerance="10"
     inkscape:pageopacity="0"
     inkscape:pageshadow="2"
     inkscape:window-width="1242"
     inkscape:window-height="773"
     id="namedview14"
     showgrid="false"
     inkscape:zoom="1.8944799"
     inkscape:cx="-53.929966"
     inkscape:cy="-16.259234"
     inkscape:window-x="38"
     inkscape:window-y="27"
     inkscape:window-maximized="1"
     inkscape:current-layer="svg12" />
  <g
     id="g848"
     transform="translate(-71.540733,-69.395042)">
    <circle
       style="fill:#ffd838;fill-opacity:1"
       id="circle2-3"
       r="20"
       cx="95.540733"
       cy="93.395042" />
    <path
       id="path6-6"
       d="m 92.540732,77.395044 v 3.375 c -5.73,1.355 -10,6.48 -10,12.625 0,7.179996 5.82,12.999996 13,12.999996 6.315998,0 11.580998,-4.505 12.754998,-10.476996 0.245,-2.523 -2.755,-2.523 -3.027,-0.197 -1.048,4.400996 -5.006,7.673996 -9.727998,7.673996 -5.523,0 -10,-4.476996 -10,-9.999996 0,-4.4763 2.9445,-8.2596 7,-9.5352 v 3.535 l 6,-5 z"
       style="fill:#ffffff;fill-rule:evenodd"
       inkscape:connector-curvature="0" />
  </g>
</svg>
