<svg width="48" height="48" version="1" xmlns="http://www.w3.org/2000/svg">
 <path d="m8 4c0.53675 1.1076 0.93588 2.1309 1 3.375 0.11358 1.4077-0.32897 2.6217-0.87305 3.9785-0.449 3.1149 0.79684 3.773 3.8672 3.6719 0.77306-0.0509 1.7145-0.29803 2.3594-0.89453 1.0222-1.2295 0.62837-2.0038 0.20703-2.0898-1.1602-0.3337-1.5595 0.95909-0.47852 0.99609 0.21433 0.8603-1.9478 1.3-2.3984 0.57617-1.6963-2.9829 3.3164-6.3076 8.3164-3.6133 1.0533 8.1409 1.3279 19.037 0.59375 28.637-0.84451 1.9243-1.4761 2.503-3.5938 3.3633v2c4-1 10-1 14-1v-2c-1.8814-0.3328-3.1006-1.9028-3.3223-3.6289-0.73093-9.605-1.1926-17.371 0.32227-26.371h7.5918c0.9013 0.02 2.1792 0.8975 2.4082 3h2c-1.0149-2.3808-1-7-1-7-8 0-19.25 0.041-31-3zm29.814 21.002c-0.27993 0.006381-0.54797 0.023673-0.68164 0.048828-0.10716 0.02016-0.25638 0.04875-0.33203 0.0625-0.50422 0.09169-1.0811 0.25319-1.5781 0.50195-0.9687 0.4848-1.5318 0.98797-1.8691 1.668-0.20116 0.40562-0.33062 0.79451-0.35352 1.2598 0 1.0724 0 2.457 2 2.457s1-3 2.5-3c2.5 0 1.5106 2.6987-0.31055 4.168-0.12953 0.07886-0.19922 0.18169-0.19922 0.28906 0.24177 0.73098 0.46541 2.1498 1.2695 2.5547 0.1837-0.27193 0.51324-0.87649 0.93945-1.0117 0.19279 0 0.32492-0.063833 0.45703 0.18555 1.0232 2.5639-0.43635 4.0288-1.1309 4.418-0.69451 0.38916-2.3906 0.71507-3.0645-0.11719 0.80747-0.16244 1.374-0.2919 1.5488-1.2812 0.04602-0.47674-0.005612-0.89897-0.20703-1.2598-0.2285-0.40945-0.75537-0.78106-1.2559-0.88672-0.24196-0.05105-0.28138-0.055641-0.51758-0.056641-1.4426-0.002055-2.5304 0.87464-2.9238 2.6074-0.114 0.65129-0.1245 0.80452-0.083985 1.2578 0.03584 0.4011 0.10986 0.70194 0.26367 1.0703 0.05817 0.13932 0.17398 0.37818 0.21875 0.45312 0.01118 0.01873 0.061741 0.10902 0.11328 0.19922 0.09233 0.16159 0.23865 0.36912 0.30859 0.43945 0.01968 0.01978 0.035157 0.044287 0.035157 0.054687-1e-6 0.03374 0.50987 0.54305 0.68359 0.68359 0.0594 0.04807 0.12335 0.10433 0.14258 0.12305 0.18478 0.1805 0.83683 0.55226 1.1328 0.64648 0.05162 0.01643 0.18188 0.06082 0.28906 0.09961 0.1807 0.06541 0.66888 0.19766 0.80078 0.2168 0.03152 0.00457 0.13049 0.025081 0.21875 0.044922 0.087805 0.019727 0.25181 0.049786 0.36523 0.066406h0.001953c0.11407 0.016496 0.37121 0.032963 0.57227 0.035156 0.44038 0.00491 1.2747-0.034343 1.3867-0.064453 0.044139-0.01187 0.11062-0.027203 0.14844-0.033203 0.07084-0.01132 0.5247-0.10182 0.58594-0.11719 0.11743-0.02948 0.21783-0.058681 0.40039-0.11328 0.11347-0.03394 0.24694-0.070331 0.29688-0.082031 0.04995-0.01169 0.10204-0.029763 0.11523-0.039063 0.013111-0.00926 0.081041-0.035623 0.15039-0.058593 0.22678-0.07512 0.68111-0.29373 0.93945-0.45313 0.08209-0.05066 0.1666-0.10274 0.1875-0.11523 0.02081-0.01249 0.099151-0.06606 0.17578-0.11914 0.07663-0.053081 0.14584-0.095704 0.15234-0.095704 0.02501 0 0.2633-0.17437 0.375-0.27344 0.03521-0.03122 0.11592-0.099964 0.17774-0.15234 0.22507-0.1907 0.55308-0.5342 0.61328-0.64062 0.01141-0.02019 0.052807-0.073211 0.091797-0.11914 0.15927-0.18752 0.28906-0.36124 0.28906-0.38672 0-0.00993 0.046806-0.090055 0.10352-0.17774 0.05678-0.08767 0.10352-0.16498 0.10352-0.17188 0-0.00688 0.036881-0.089526 0.082031-0.18555 0.04516-0.09601 0.095741-0.20668 0.11328-0.24414 0.11389-0.24384 0.26286-0.79955 0.29688-1.1113 0.00683-0.06244 0.022133-0.18602 0.033203-0.27344 0.02185-0.16748 0.017271-0.7922-0.005859-0.9082-0.00746-0.03746-0.02349-0.17004-0.03711-0.29492-0.04255-0.39227-0.16492-0.91331-0.28906-1.2383-0.04533-0.11864-0.097538-0.26021-0.11719-0.31641-0.01959-0.0562-0.049056-0.12381-0.066406-0.14844-0.01734-0.02463-0.033203-0.058672-0.033203-0.076172 0-0.05637-0.29096-0.62163-0.42969-0.83398-0.073989-0.11329-0.14199-0.22045-0.15039-0.23828-0.02007-0.04243-0.069838-0.12036-0.085938-0.13477-0.00694-0.00624-0.035533-0.050496-0.064453-0.097656s-0.065028-0.098001-0.080078-0.11328c-0.01495-0.01528-0.051561-0.063712-0.082031-0.10742-0.03052-0.04372-0.061259-0.083644-0.06836-0.089844-0.007119-0.00624-0.042124-0.048087-0.078124-0.091797-0.078701-0.09557-0.22224-0.34743-0.39844-0.7207 0.2145-0.65295 0.4732-1.423 0.82422-2.125 0.01543-0.049965 0.044516-0.076232 0.066406-0.13867 0.06162-0.17611 0.13934-0.56925 0.15625-0.79492 0.03055-0.40647 0.009081-1.0644-0.042969-1.2988-0.0349-0.15728-0.20546-0.64599-0.26367-0.75586-0.02975-0.0562-0.08613-0.16882-0.125-0.25-0.11381-0.23778-0.22694-0.39513-0.50391-0.69531-0.13947-0.15116-0.57614-0.53353-0.70898-0.62109-0.2423-0.15972-0.40402-0.25338-0.54102-0.31641-0.26974-0.12413-0.39534-0.17936-0.4707-0.20703-0.04412-0.0162-0.089622-0.038348-0.10156-0.048828-0.012-0.01048-0.035194-0.019531-0.052734-0.019531-0.01765 0-0.065729-0.01373-0.10547-0.03125-0.1825-0.08052-1.0866-0.19738-1.5566-0.24219-0.1871-0.01784-0.47984-0.022006-0.75977-0.015625z" fill="#975ba5"/>
</svg>
