<svg width="48" height="48" version="1" xmlns="http://www.w3.org/2000/svg">
 <path d="m24 4c-0.482 0-0.957 0.0235-1.43 0.0566-0.059 0.0044-0.118 0.0088-0.177 0.0137-7.145 0.5638-13.196 4.8533-16.252 10.934-0.0011 1e-3 -0.0017 3e-3 -0.0023 4e-3 -0.1978 0.393-0.4002 0.785-0.5723 1.193-0.9363 2.114-1.4447 4.358-1.5371 6.707-0.0041 0.076-0.0046 0.153-0.0078 0.229-0.0062 0.224-0.0191 0.447-0.0176 0.674-6e-4 0.063-0.0039 0.125-0.0039 0.189 0 2.326 0.4133 4.546 1.1367 6.619 0.2912 0.929 0.6266 1.868 1.0313 2.819 1.008 2.368 1.1332 3.014 0.9746 4.992-0.1105 1.378-0.4841 2.785-0.9512 3.578-0.4234 0.718-0.7695 1.46-0.7695 1.648 0 0.584 3.3772 0.38 6.3611-0.385 3.496-0.895 3.802-0.893 6.668 6e-3 1.311 0.412 2.808 0.634 4.496 0.696 0.071 3e-3 0.142 3e-3 0.213 6e-3 0.231 6e-3 0.453 0.021 0.692 0.021 0.019 0 0.037-2e-3 0.056-2e-3 0.031 0 0.061 2e-3 0.092 2e-3 0.558 0 1.11-0.028 1.656-0.072 4.945-0.352 8.916-2.182 12.49-5.75 2.945-2.94 4.77-6.57 5.491-10.367 0.066-0.348 0.121-0.698 0.17-1.051 0.029-0.217 0.06-0.433 0.082-0.651 0.048-0.466 0.077-0.94 0.093-1.416 4e-3 -0.12 9e-3 -0.239 0.01-0.359 2e-3 -0.112 8e-3 -0.222 8e-3 -0.334 0-10.895-8.627-19.695-19.449-19.986-0.084-0.0028-0.168-0.0049-0.252-0.0062-0.1-0.0014-0.199-0.0078-0.299-0.0078z" fill="#26af5f"/>
 <path d="m31.501 32.537c1.4993-0.69398 2.1964-1.5647 2.4367-3.0438 0.18318-1.1272 0.0987-1.4156-2.1821-2.4799-2.9-1.3533-2.7212-1.3598-3.9705 0.14357-0.77751 0.9356-1.1116 1.2392-1.3639 1.2392-2.9554-0.77446-5.9625-3.0116-6.919-5.9493 0-0.12579 0.31456-0.58603 0.69904-1.0227 1.1305-1.2841 1.1317-1.3155 0.1447-3.6724-1.1363-2.7134-1.5207-2.6949-2.7586-2.7446-1.2668-0.05078-1.6672 0.14438-2.4687 1.2035-0.82927 1.0958-1.1254 1.9773-1.1185 3.3301 9e-3 1.7171 0.58958 3.0958 2.2711 5.3901 2.8866 3.9386 5.7029 6.0762 9.7603 7.4084 2.4815 0.81472 4.0169 0.8703 5.4694 0.19797z" enable-background="new" fill="#fff"/>
</svg>
