<?xml version="1.0" encoding="UTF-8" standalone="no"?>
<svg
   xmlns:dc="http://purl.org/dc/elements/1.1/"
   xmlns:cc="http://creativecommons.org/ns#"
   xmlns:rdf="http://www.w3.org/1999/02/22-rdf-syntax-ns#"
   xmlns:svg="http://www.w3.org/2000/svg"
   xmlns="http://www.w3.org/2000/svg"
   xmlns:sodipodi="http://sodipodi.sourceforge.net/DTD/sodipodi-0.dtd"
   xmlns:inkscape="http://www.inkscape.org/namespaces/inkscape"
   height="48"
   width="48"
   version="1"
   id="svg16"
   sodipodi:docname="yast.svg"
   inkscape:version="0.92.3 (2405546, 2018-03-11)">
  <metadata
     id="metadata22">
    <rdf:RDF>
      <cc:Work
         rdf:about="">
        <dc:format>image/svg+xml</dc:format>
        <dc:type
           rdf:resource="http://purl.org/dc/dcmitype/StillImage" />
      </cc:Work>
    </rdf:RDF>
  </metadata>
  <defs
     id="defs20" />
  <sodipodi:namedview
     pagecolor="#ffffff"
     bordercolor="#666666"
     borderopacity="1"
     objecttolerance="10"
     gridtolerance="10"
     guidetolerance="10"
     inkscape:pageopacity="0"
     inkscape:pageshadow="2"
     inkscape:window-width="1242"
     inkscape:window-height="773"
     id="namedview18"
     showgrid="false"
     inkscape:zoom="3.7889599"
     inkscape:cx="7.2776811"
     inkscape:cy="60.437033"
     inkscape:window-x="38"
     inkscape:window-y="27"
     inkscape:window-maximized="1"
     inkscape:current-layer="svg16" />
  <g
     id="g867"
     transform="translate(81.53558,52.010307)">
    <rect
       ry="2.8760703"
       y="-48.03281"
       x="-77.647469"
       height="40.045006"
       width="40.223778"
       id="rect819"
       style="opacity:1;fill:#4383c3;fill-opacity:1;stroke:none;stroke-width:2.08799553;stroke-linecap:round;stroke-linejoin:round;stroke-miterlimit:4;stroke-dasharray:none;stroke-dashoffset:127.80001068;stroke-opacity:1;paint-order:normal" />
    <g
       transform="matrix(1.0439978,0,0,1.0439978,-132.26242,-54.881798)"
       id="g830">
      <rect
         style="opacity:1;fill:#3f324e;fill-opacity:1;stroke:none;stroke-width:2;stroke-linecap:round;stroke-linejoin:round;stroke-miterlimit:4;stroke-dasharray:none;stroke-dashoffset:127.80001068;stroke-opacity:1;paint-order:normal"
         id="rect821"
         width="4.109714"
         height="22.603451"
         x="59.248432"
         y="14.437305"
         ry="2.054857" />
      <rect
         ry="2.054857"
         y="14.437305"
         x="69.522728"
         height="22.603451"
         width="4.109714"
         id="rect823"
         style="opacity:1;fill:#3f324e;fill-opacity:1;stroke:none;stroke-width:2;stroke-linecap:round;stroke-linejoin:round;stroke-miterlimit:4;stroke-dasharray:none;stroke-dashoffset:127.80001068;stroke-opacity:1;paint-order:normal" />
      <rect
         style="opacity:1;fill:#3f324e;fill-opacity:1;stroke:none;stroke-width:2;stroke-linecap:round;stroke-linejoin:round;stroke-miterlimit:4;stroke-dasharray:none;stroke-dashoffset:127.80001068;stroke-opacity:1;paint-order:normal"
         id="rect825"
         width="4.109714"
         height="22.603451"
         x="79.79702"
         y="14.437305"
         ry="2.054857" />
    </g>
    <circle
       r="4.3799224"
       cy="-32.094254"
       cx="-68.289742"
       id="path832"
       style="fill:#eef3f6;fill-rule:evenodd;stroke-width:1.04399776" />
    <circle
       style="fill:#eef3f6;fill-rule:evenodd;stroke-width:1.04399776"
       id="circle834"
       cx="-57.5634"
       cy="-21.36791"
       r="4.3799224" />
    <circle
       r="4.3799224"
       cy="-28.965736"
       cx="-46.837063"
       id="circle836"
       style="fill:#eef3f6;fill-rule:evenodd;stroke-width:1.04399776" />
  </g>
</svg>
