<svg width="48" height="48" version="1" xmlns="http://www.w3.org/2000/svg">
 <rect x="9" y="8" width="30" height="35" rx="2" ry="2.059" fill="#26af5f"/>
 <rect x="6" y="5" width="36" height="8" rx="2" ry="2" fill="#4aba70"/>
 <g transform="translate(0,4)" opacity=".4">
  <rect x="22" y="14" width="4" height="20" rx="1" ry="1" opacity="1"/>
  <rect x="30" y="14" width="4" height="20" rx="1" ry="1" opacity="1"/>
  <rect x="14" y="14" width="4" height="20" rx="1" ry="1" opacity="1"/>
 </g>
 <rect x="18" y="4" width="12" height="4" fill="#4aba70"/>
</svg>
