<?xml version="1.0" encoding="UTF-8" standalone="no"?>
<svg
   xmlns:dc="http://purl.org/dc/elements/1.1/"
   xmlns:cc="http://creativecommons.org/ns#"
   xmlns:rdf="http://www.w3.org/1999/02/22-rdf-syntax-ns#"
   xmlns:svg="http://www.w3.org/2000/svg"
   xmlns="http://www.w3.org/2000/svg"
   xmlns:sodipodi="http://sodipodi.sourceforge.net/DTD/sodipodi-0.dtd"
   xmlns:inkscape="http://www.inkscape.org/namespaces/inkscape"
   width="22"
   height="22"
   version="1"
   id="svg16"
   sodipodi:docname="folder-print.svg"
   inkscape:version="0.92.3 (2405546, 2018-03-11)">
  <metadata
     id="metadata22">
    <rdf:RDF>
      <cc:Work
         rdf:about="">
        <dc:format>image/svg+xml</dc:format>
        <dc:type
           rdf:resource="http://purl.org/dc/dcmitype/StillImage" />
        <dc:title />
      </cc:Work>
    </rdf:RDF>
  </metadata>
  <defs
     id="defs20" />
  <sodipodi:namedview
     pagecolor="#ffffff"
     bordercolor="#666666"
     borderopacity="1"
     objecttolerance="10"
     gridtolerance="10"
     guidetolerance="10"
     inkscape:pageopacity="0"
     inkscape:pageshadow="2"
     inkscape:window-width="1242"
     inkscape:window-height="505"
     id="namedview18"
     showgrid="false"
     inkscape:zoom="10.727273"
     inkscape:cx="-0.46610142"
     inkscape:cy="10.254238"
     inkscape:window-x="38"
     inkscape:window-y="295"
     inkscape:window-maximized="0"
     inkscape:current-layer="svg16" />
  <g
     transform="translate(0,-0.30618714)"
     id="g887">
    <path
       id="path826"
       d="M 21,7.1425781 H 1 v 1.0683594 0.5 0.5 7.5410155 1.5 0.5 0.5 c 0,0.55399 0.44601,1 1,1 h 18 c 0.55399,0 1,-0.44601 1,-1 v -0.5 -9.4999999 -0.5 -0.5 z"
       style="opacity:1;fill:#3597d4;fill-opacity:1"
       inkscape:connector-curvature="0" />
    <path
       id="path824"
       d="M 20.267952,6.0664062 H 1.7320481 V 7.1425781 H 20.267952 Z"
       style="opacity:1;fill:#eef3f6;fill-opacity:1;stroke-width:0.96270204"
       inkscape:connector-curvature="0" />
    <path
       id="path2"
       d="M 3.2782682,2.3647339 C 2.8058784,2.3122262 2.420298,2.7473972 2.420298,3.2227042 V 3.6516893 6.0664062 H 19.579702 V 5.3676297 4.9386446 c 0,-0.8579531 -0.814401,-0.8579702 -0.814401,-0.8579702 H 9.2840597 c 0,-1.0287664 0,-1.7161378 -0.8579702,-1.7159405 z"
       style="opacity:1;fill:#3597d4;fill-opacity:1;stroke-width:0.85797024"
       inkscape:connector-curvature="0" />
  </g>
  <path
     style="opacity:1;fill:#eef3f6;fill-opacity:1"
     d="m 8,9.8135593 v 1.4999997 h 6 V 9.8135593 Z M 7.5,11.813559 c -0.25,0 -0.5,0.25 -0.5,0.5 v 2 c 0,0.25 0.25,0.5 0.5,0.5 H 8 v 2 h 6 v -2 h 0.5 c 0.25,0 0.5,-0.25 0.5,-0.5 v -2 c 0,-0.25 -0.25,-0.5 -0.5,-0.5 z m 0.5,2 h 6 v 0.5 H 8 Z"
     id="path14"
     inkscape:connector-curvature="0" />
</svg>
