<?xml version="1.0" encoding="UTF-8" standalone="no"?>
<svg
   xmlns:dc="http://purl.org/dc/elements/1.1/"
   xmlns:cc="http://creativecommons.org/ns#"
   xmlns:rdf="http://www.w3.org/1999/02/22-rdf-syntax-ns#"
   xmlns:svg="http://www.w3.org/2000/svg"
   xmlns="http://www.w3.org/2000/svg"
   xmlns:sodipodi="http://sodipodi.sourceforge.net/DTD/sodipodi-0.dtd"
   xmlns:inkscape="http://www.inkscape.org/namespaces/inkscape"
   width="22"
   height="22"
   version="1"
   id="svg16"
   sodipodi:docname="folder-linux.svg"
   inkscape:version="0.92.3 (2405546, 2018-03-11)">
  <metadata
     id="metadata22">
    <rdf:RDF>
      <cc:Work
         rdf:about="">
        <dc:format>image/svg+xml</dc:format>
        <dc:type
           rdf:resource="http://purl.org/dc/dcmitype/StillImage" />
        <dc:title />
      </cc:Work>
    </rdf:RDF>
  </metadata>
  <defs
     id="defs20" />
  <sodipodi:namedview
     pagecolor="#ffffff"
     bordercolor="#666666"
     borderopacity="1"
     objecttolerance="10"
     gridtolerance="10"
     guidetolerance="10"
     inkscape:pageopacity="0"
     inkscape:pageshadow="2"
     inkscape:window-width="1242"
     inkscape:window-height="505"
     id="namedview18"
     showgrid="false"
     inkscape:zoom="10.727273"
     inkscape:cx="-0.46610142"
     inkscape:cy="10.254238"
     inkscape:window-x="38"
     inkscape:window-y="295"
     inkscape:window-maximized="0"
     inkscape:current-layer="svg16" />
  <g
     transform="translate(0,-0.30618714)"
     id="g887">
    <path
       id="path826"
       d="M 21,7.1425781 H 1 v 1.0683594 0.5 0.5 7.5410155 1.5 0.5 0.5 c 0,0.55399 0.44601,1 1,1 h 18 c 0.55399,0 1,-0.44601 1,-1 v -0.5 -9.4999999 -0.5 -0.5 z"
       style="opacity:1;fill:#3597d4;fill-opacity:1"
       inkscape:connector-curvature="0" />
    <path
       id="path824"
       d="M 20.267952,6.0664062 H 1.7320481 V 7.1425781 H 20.267952 Z"
       style="opacity:1;fill:#eef3f6;fill-opacity:1;stroke-width:0.96270204"
       inkscape:connector-curvature="0" />
    <path
       id="path2"
       d="M 3.2782682,2.3647339 C 2.8058784,2.3122262 2.420298,2.7473972 2.420298,3.2227042 V 3.6516893 6.0664062 H 19.579702 V 5.3676297 4.9386446 c 0,-0.8579531 -0.814401,-0.8579702 -0.814401,-0.8579702 H 9.2840597 c 0,-1.0287664 0,-1.7161378 -0.8579702,-1.7159405 z"
       style="opacity:1;fill:#3597d4;fill-opacity:1;stroke-width:0.85797024"
       inkscape:connector-curvature="0" />
  </g>
  <path
     style="opacity:1;fill:#eef3f6"
     d="m 11.413898,14.850559 c -0.56,0.26 -1.081,0.258 -1.4309997,0.232 -0.417,-0.03 -0.7528,-0.144 -0.9003,-0.244 -0.0909,-0.061 -0.2145,-0.038 -0.2761,0.053 -0.0615,0.091 -0.0377,0.215 0.0532,0.276 0.2371,0.161 0.6566,0.28 1.0952,0.312 0.074,0.005 0.1549997,0.009 0.2429997,0.009 0.381,0 0.866,-0.037 1.384,-0.278 0.099,-0.046 0.142,-0.164 0.096,-0.264 -0.046,-0.099 -0.165,-0.142 -0.264,-0.096 z m 2.21,-0.295 c 0.019,-1.727 0.196,-4.9906997 -3.11,-4.7269997 -3.2644997,0.2629997 -2.3988997,3.7109997 -2.4475997,4.8659997 -0.0431,0.611 -0.2459,1.358 -0.5324,2.118 h 0.8824 c 0.0907,-0.322 0.1574,-0.641 0.1861,-0.944 0.0532,0.037 0.1101,0.073 0.1709,0.107 0.0988,0.058 0.1836,0.136 0.2736,0.218 0.2101,0.191 0.4484,0.408 0.914,0.435 0.031,0.002 0.063,0.003 0.093,0.003 0.471,0 0.793,-0.206 1.052,-0.372 0.124,-0.079 0.231,-0.147 0.332,-0.18 0.287,-0.09 0.537,-0.235 0.724,-0.419 0.029,-0.029 0.056,-0.058 0.082,-0.089 0.104,0.382 0.247,0.812 0.405,1.241 h 1.884 c -0.452,-0.699 -0.919,-1.383 -0.909,-2.257 z m -5.2415997,-0.939 c 0,0 0,0 -10e-5,-0.001 -0.0324,-0.563 0.2373,-1.037 0.6024,-1.059 0.3651,-0.021 0.6873,0.419 0.7193,0.983 0,0 10e-4,0 10e-4,0 10e-4,0.03 0.002,0.06 0.002,0.09 -0.116,0.029 -0.22,0.071 -0.3135,0.121 -4e-4,-0.005 -7e-4,-0.009 -0.0011,-0.013 v 0 c -0.0313,-0.32 -0.2021,-0.562 -0.3818,-0.54 -0.1795,0.022 -0.2998,0.299 -0.2686,0.619 0,0 0,0 0,0 0.0136,0.14 0.0538,0.265 0.1097,0.359 -0.014,0.011 -0.0533,0.04 -0.0985,0.073 -0.034,0.025 -0.0753,0.055 -0.1252,0.092 -0.1359,-0.179 -0.229,-0.435 -0.2457,-0.724 z m 3.6985997,1.393 c -0.013,0.298 -0.403,0.578 -0.762,0.69 l -0.003,10e-4 c -0.149,0.049 -0.283,0.134 -0.424,0.225 -0.237,0.151 -0.483,0.309 -0.837,0.309 -0.024,0 -0.048,-0.001 -0.071,-0.003 -0.325,-0.019 -0.4767,-0.157 -0.6689,-0.332 -0.1016,-0.093 -0.2065,-0.188 -0.3416,-0.268 l -0.0029,-10e-4 c -0.292,-0.165 -0.4732,-0.37 -0.4848,-0.548 -0.0057,-0.089 0.0338,-0.166 0.1175,-0.229 0.182,-0.136 0.304,-0.225 0.3846,-0.284 0.0897,-0.066 0.1168,-0.086 0.1367,-0.105 0.0144,-0.013 0.0298,-0.028 0.0465,-0.045 0.1672,-0.162 0.4469,-0.434 0.8758997,-0.434 0.263,0 0.553,0.101 0.862,0.3 0.146,0.095 0.273,0.139 0.434,0.194 0.11,0.038 0.235,0.081 0.403,0.153 l 0.003,10e-4 c 0.156,0.065 0.341,0.182 0.332,0.376 z m -0.086,-0.7 c -0.03,-0.015 -0.061,-0.029 -0.094,-0.043 -0.151,-0.065 -0.272,-0.108 -0.373,-0.143 0.056,-0.109 0.09,-0.245 0.093,-0.392 v 0 c 0.008,-0.358 -0.172,-0.648 -0.403,-0.649 -0.23,-10e-4 -0.423,0.289 -0.431,0.647 v 0 c 0,0.012 0,0.024 0,0.035 -0.142,-0.065 -0.282,-0.112 -0.418,-0.142 -10e-4,-0.013 -0.002,-0.027 -0.002,-0.04 v 0 c -0.013,-0.653 0.387,-1.192 0.894,-1.206 0.507,-0.014 0.928,0.504 0.942,1.156 v 0 c 0.005,0.295 -0.073,0.567 -0.208,0.777 z"
     id="path14"
     inkscape:connector-curvature="0" />
</svg>
