<?xml version="1.0" encoding="UTF-8" standalone="no"?>
<svg
   xmlns:dc="http://purl.org/dc/elements/1.1/"
   xmlns:cc="http://creativecommons.org/ns#"
   xmlns:rdf="http://www.w3.org/1999/02/22-rdf-syntax-ns#"
   xmlns:svg="http://www.w3.org/2000/svg"
   xmlns="http://www.w3.org/2000/svg"
   xmlns:sodipodi="http://sodipodi.sourceforge.net/DTD/sodipodi-0.dtd"
   xmlns:inkscape="http://www.inkscape.org/namespaces/inkscape"
   width="22"
   height="22"
   version="1"
   id="svg12"
   sodipodi:docname="network-workgroup.svg"
   inkscape:version="0.92.3 (2405546, 2018-03-11)">
  <metadata
     id="metadata18">
    <rdf:RDF>
      <cc:Work
         rdf:about="">
        <dc:format>image/svg+xml</dc:format>
        <dc:type
           rdf:resource="http://purl.org/dc/dcmitype/StillImage" />
      </cc:Work>
    </rdf:RDF>
  </metadata>
  <defs
     id="defs16" />
  <sodipodi:namedview
     pagecolor="#ffffff"
     bordercolor="#666666"
     borderopacity="1"
     objecttolerance="10"
     gridtolerance="10"
     guidetolerance="10"
     inkscape:pageopacity="0"
     inkscape:pageshadow="2"
     inkscape:window-width="1242"
     inkscape:window-height="773"
     id="namedview14"
     showgrid="false"
     inkscape:zoom="7.7631084"
     inkscape:cx="19.051814"
     inkscape:cy="11.365003"
     inkscape:window-x="38"
     inkscape:window-y="27"
     inkscape:window-maximized="1"
     inkscape:current-layer="svg12" />
  <path
     style="fill:#3597d4"
     d="M 11 1 C 5.46 1 1 5.46 1 11 C 1 11.084 1.0038594 11.166 1.0058594 11.25 C 1.0062941 11.232196 1.0092389 11.215046 1.0097656 11.197266 C 1.1152455 16.644512 5.5266118 21 11 21 C 16.473388 21 20.884754 16.644512 20.990234 11.197266 C 20.99076 11.215046 20.993707 11.232196 20.994141 11.25 C 20.996141 11.1665 21 11.084 21 11 C 21 5.46 16.54 1 11 1 z "
     id="rect2" />
  <path
     style="fill:#eef3f6"
     d="m 11,4.0000001 c -3.866,0 -7,3.134 -7,6.9999999 0,3.866 3.134,7 7,7 3.866,0 7,-3.134 7,-7 0,-3.8659998 -3.134,-6.9999999 -7,-6.9999999 z m -0.701172,1.3378911 c 0.08161,-0.0085 0.185238,0.0049 0.267578,0 0.0098,0.03904 -0.05926,0.177589 -0.152344,0.380859 -0.592693,1.294794 -0.626245,2.8125509 -0.07617,3.6230468 0.09954,0.146948 0.189453,0.286507 0.189453,0.304687 0,0.01817 -0.107136,0.03711 -0.228516,0.03711 C 10.013887,9.683594 9.7443,9.510489 9.19336,9.074219 8.948613,8.8804142 8.631083,8.7179991 8.507813,8.6933591 8.31424,8.6546891 8.262139,8.6714292 8.01172,8.9218751 7.778727,9.154826 7.707032,9.28088 7.707032,9.494141 c 0,0.808716 0.959536,1.449836 2.744141,1.828125 2.42356,0.51366 3.021041,0.975603 3.08789,2.25 0.08393,1.598058 -0.767351,2.803477 -2.630859,3.736328 -0.222422,0.111379 -0.363711,0.153463 -0.457031,0.189453 -0.04135,-0.0037 -0.07205,0.0037 -0.113281,0 -0.01586,-0.04941 -0.03906,-0.16367 -0.03906,-0.380859 0,-0.848777 -0.33377,-1.722371 -0.83789,-2.210938 C 9.325619,14.775087 8.945565,14.49773 8.621098,14.296875 8.296643,14.096032 7.969438,13.863212 7.896488,13.763672 7.775598,13.598486 7.766499,13.496563 7.859378,13.191406 8.02865,12.634074 8.229414,12.32285 8.621097,11.970703 8.826441,11.786085 9.032638,11.632606 9.078128,11.628906 9.123628,11.625206 8.817324,11.531976 8.355472,11.4375 7.893646,11.34284 7.216483,11.143995 6.867191,11.017578 6.22848,10.786469 5.367827,10.302306 5.039065,9.951172 5.025155,9.936292 5.012085,9.925292 5.000005,9.912112 5.471042,8.0357962 6.792552,6.4989001 8.544927,5.7578152 c 0.366663,-0.155085 0.745529,-0.26214 1.144531,-0.34375 0.198745,-0.04062 0.404165,-0.05531 0.609375,-0.07617 z m 5.71875,2.8593749 c 0.143276,0.08856 0.683464,1.2591689 0.837891,1.8300779 0.199379,0.737047 0.184947,2.01196 0,2.74414 -0.07039,0.278672 -0.159443,0.539816 -0.189453,0.572266 -0.03001,0.03245 -0.139563,-0.153996 -0.267578,-0.380859 -0.128029,-0.226827 -0.537105,-0.709773 -0.876954,-1.06836 -0.980964,-1.035115 -1.135518,-1.574279 -0.724609,-2.40039 0.207223,-0.41658 1.109815,-1.3653149 1.220703,-1.2968749 z"
     id="path10" />
</svg>
